\defcounter {refsection}{0}\relax 
\beamer@endinputifotherversion {3.36pt}
\defcounter {refsection}{0}\relax 
\headcommand {\slideentry {0}{0}{1}{1/1}{}{0}}
\defcounter {refsection}{0}\relax 
\headcommand {\beamer@framepages {1}{1}}
\defcounter {refsection}{0}\relax 
\headcommand {\slideentry {0}{0}{2}{2/2}{}{0}}
\defcounter {refsection}{0}\relax 
\headcommand {\beamer@framepages {2}{2}}
\defcounter {refsection}{0}\relax 
\headcommand {\slideentry {0}{0}{3}{3/3}{}{0}}
\defcounter {refsection}{0}\relax 
\headcommand {\beamer@framepages {3}{3}}
\defcounter {refsection}{0}\relax 
\headcommand {\sectionentry {1}{Motivation}{4}{Motivation}{0}}
\defcounter {refsection}{0}\relax 
\headcommand {\beamer@sectionpages {1}{3}}
\defcounter {refsection}{0}\relax 
\headcommand {\beamer@subsectionpages {1}{3}}
\defcounter {refsection}{0}\relax 
\headcommand {\slideentry {1}{0}{1}{4/5}{}{0}}
\defcounter {refsection}{0}\relax 
\headcommand {\beamer@framepages {4}{5}}
\defcounter {refsection}{0}\relax 
\headcommand {\sectionentry {2}{Hardware generators}{6}{Hardware generators}{0}}
\defcounter {refsection}{0}\relax 
\headcommand {\beamer@sectionpages {4}{5}}
\defcounter {refsection}{0}\relax 
\headcommand {\beamer@subsectionpages {4}{5}}
\defcounter {refsection}{0}\relax 
\headcommand {\slideentry {2}{0}{1}{6/6}{}{0}}
\defcounter {refsection}{0}\relax 
\headcommand {\beamer@framepages {6}{6}}
\defcounter {refsection}{0}\relax 
\headcommand {\slideentry {2}{0}{2}{7/7}{}{0}}
\defcounter {refsection}{0}\relax 
\headcommand {\beamer@framepages {7}{7}}
\defcounter {refsection}{0}\relax 
\headcommand {\sectionentry {3}{Software generators}{8}{Software generators}{0}}
\defcounter {refsection}{0}\relax 
\headcommand {\beamer@sectionpages {6}{7}}
\defcounter {refsection}{0}\relax 
\headcommand {\beamer@subsectionpages {6}{7}}
\defcounter {refsection}{0}\relax 
\headcommand {\slideentry {3}{0}{1}{8/8}{}{0}}
\defcounter {refsection}{0}\relax 
\headcommand {\beamer@framepages {8}{8}}
\defcounter {refsection}{0}\relax 
\headcommand {\beamer@subsectionentry {0}{3}{1}{9}{Linear Congruential Generator}}\headcommand {\beamer@subsectionpages {8}{8}}
\defcounter {refsection}{0}\relax 
\headcommand {\slideentry {3}{1}{1}{9/9}{Linear Congruential Generator}{0}}
\defcounter {refsection}{0}\relax 
\headcommand {\beamer@framepages {9}{9}}
\defcounter {refsection}{0}\relax 
\headcommand {\beamer@subsectionentry {0}{3}{2}{10}{RSA, BBS}}\headcommand {\beamer@subsectionpages {9}{9}}
\defcounter {refsection}{0}\relax 
\headcommand {\slideentry {3}{2}{1}{10/10}{RSA, BBS}{0}}
\defcounter {refsection}{0}\relax 
\headcommand {\beamer@framepages {10}{10}}
\defcounter {refsection}{0}\relax 
\headcommand {\beamer@subsectionentry {0}{3}{3}{11}{Other generators}}\headcommand {\beamer@subsectionpages {10}{10}}
\defcounter {refsection}{0}\relax 
\headcommand {\slideentry {3}{3}{1}{11/11}{Other generators}{0}}
\defcounter {refsection}{0}\relax 
\headcommand {\beamer@framepages {11}{11}}
\defcounter {refsection}{0}\relax 
\headcommand {\sectionentry {4}{Results}{12}{Results}{0}}
\defcounter {refsection}{0}\relax 
\headcommand {\beamer@sectionpages {8}{11}}
\defcounter {refsection}{0}\relax 
\headcommand {\beamer@subsectionpages {11}{11}}
\defcounter {refsection}{0}\relax 
\headcommand {\slideentry {4}{0}{1}{12/12}{}{0}}
\defcounter {refsection}{0}\relax 
\headcommand {\beamer@framepages {12}{12}}
\defcounter {refsection}{0}\relax 
\headcommand {\slideentry {4}{0}{2}{13/13}{}{0}}
\defcounter {refsection}{0}\relax 
\headcommand {\beamer@framepages {13}{13}}
\defcounter {refsection}{0}\relax 
\headcommand {\sectionentry {5}{Conclusion \& Future Work}{14}{Conclusion \& Future Work}{0}}
\defcounter {refsection}{0}\relax 
\headcommand {\beamer@sectionpages {12}{13}}
\defcounter {refsection}{0}\relax 
\headcommand {\beamer@subsectionpages {12}{13}}
\defcounter {refsection}{0}\relax 
\headcommand {\slideentry {5}{0}{1}{14/14}{}{0}}
\defcounter {refsection}{0}\relax 
\headcommand {\beamer@framepages {14}{14}}
\defcounter {refsection}{0}\relax 
\headcommand {\slideentry {5}{0}{2}{15/15}{}{0}}
\defcounter {refsection}{0}\relax 
\headcommand {\beamer@framepages {15}{15}}
\defcounter {refsection}{0}\relax 
\headcommand {\slideentry {5}{0}{3}{16/16}{}{0}}
\defcounter {refsection}{0}\relax 
\headcommand {\beamer@framepages {16}{16}}
\defcounter {refsection}{0}\relax 
\headcommand {\sectionentry {6}{Extra slides}{17}{Extra slides}{0}}
\defcounter {refsection}{0}\relax 
\headcommand {\beamer@sectionpages {14}{16}}
\defcounter {refsection}{0}\relax 
\headcommand {\beamer@subsectionpages {14}{16}}
\defcounter {refsection}{0}\relax 
\headcommand {\slideentry {6}{0}{1}{17/17}{}{0}}
\defcounter {refsection}{0}\relax 
\headcommand {\beamer@framepages {17}{17}}
\defcounter {refsection}{0}\relax 
\headcommand {\slideentry {6}{0}{2}{18/18}{}{0}}
\defcounter {refsection}{0}\relax 
\headcommand {\beamer@framepages {18}{18}}
\headcommand {\beamer@partpages {1}{18}}
\headcommand {\beamer@subsectionpages {17}{18}}
\headcommand {\beamer@sectionpages {17}{18}}
\headcommand {\beamer@documentpages {18}}
\headcommand {\def \inserttotalframenumber {15}}
