\BOOKMARK [2][]{Outline0.1}{Motivation}{}% 1
\BOOKMARK [2][]{Outline0.2}{Hardware generators}{}% 2
\BOOKMARK [2][]{Outline0.3}{Software generators}{}% 3
\BOOKMARK [3][]{Outline0.3.1.9}{Linear Congruential Generator}{Outline0.3}% 4
\BOOKMARK [3][]{Outline0.3.2.10}{RSA, BBS}{Outline0.3}% 5
\BOOKMARK [3][]{Outline0.3.3.11}{Other generators}{Outline0.3}% 6
\BOOKMARK [2][]{Outline0.4}{Results}{}% 7
\BOOKMARK [2][]{Outline0.5}{Conclusion \046 Future Work}{}% 8
