%!PS-Adobe-3.0 EPSF-3.0
%%DocumentNeededResources: font Helvetica
%%+ font Helvetica-Bold
%%+ font Helvetica-Oblique
%%+ font Helvetica-BoldOblique
%%+ font Symbol
%%Title: R Graphics Output
%%Creator: R Software
%%Pages: (atend)
%%BoundingBox: 0 0 504 360
%%EndComments
%%BeginProlog
/bp  { gs sRGB gs } def
% begin .ps.prolog
/gs  { gsave } bind def
/gr  { grestore } bind def
/ep  { showpage gr gr } bind def
/m   { moveto } bind def
/l  { rlineto } bind def
/np  { newpath } bind def
/cp  { closepath } bind def
/f   { fill } bind def
/o   { stroke } bind def
/c   { newpath 0 360 arc } bind def
/r   { 4 2 roll moveto 1 copy 3 -1 roll exch 0 exch rlineto 0 rlineto -1 mul 0 exch rlineto closepath } bind def
/p1  { stroke } bind def
/p2  { gsave bg fill grestore newpath } bind def
/p3  { gsave bg fill grestore stroke } bind def
/p6  { gsave bg eofill grestore newpath } bind def
/p7  { gsave bg eofill grestore stroke } bind def
/t   { 5 -2 roll moveto gsave rotate
       1 index stringwidth pop
       mul neg 0 rmoveto show grestore } bind def
/ta  { 4 -2 roll moveto gsave rotate show } bind def
/tb  { 2 -1 roll 0 rmoveto show } bind def
/cl  { grestore gsave newpath 3 index 3 index moveto 1 index
       4 -1 roll lineto  exch 1 index lineto lineto
       closepath clip newpath } bind def
/rgb { setrgbcolor } bind def
/s   { scalefont setfont } bind def
% end   .ps.prolog
/sRGB { [ /CIEBasedABC
          << /DecodeLMN
               [ { dup 0.03928 le
                        {12.92321 div}
                        {0.055 add 1.055 div 2.4 exp }
                     ifelse
                 } bind dup dup
               ]
             /MatrixLMN [0.412457 0.212673 0.019334
                         0.357576 0.715152 0.119192
                         0.180437 0.072175 0.950301]
             /WhitePoint [0.9505 1.0 1.0890]
           >>
         ] setcolorspace } bind def
/srgb { setcolor } bind def
%%IncludeResource: font Helvetica
/Helvetica findfont
dup length dict begin
  {1 index /FID ne {def} {pop pop} ifelse} forall
  /Encoding ISOLatin1Encoding def
  currentdict
  end
/Font1 exch definefont pop
%%IncludeResource: font Helvetica-Bold
/Helvetica-Bold findfont
dup length dict begin
  {1 index /FID ne {def} {pop pop} ifelse} forall
  /Encoding ISOLatin1Encoding def
  currentdict
  end
/Font2 exch definefont pop
%%IncludeResource: font Helvetica-Oblique
/Helvetica-Oblique findfont
dup length dict begin
  {1 index /FID ne {def} {pop pop} ifelse} forall
  /Encoding ISOLatin1Encoding def
  currentdict
  end
/Font3 exch definefont pop
%%IncludeResource: font Helvetica-BoldOblique
/Helvetica-BoldOblique findfont
dup length dict begin
  {1 index /FID ne {def} {pop pop} ifelse} forall
  /Encoding ISOLatin1Encoding def
  currentdict
  end
/Font4 exch definefont pop
%%IncludeResource: font Symbol
/Symbol findfont
dup length dict begin
  {1 index /FID ne {def} {pop pop} ifelse} forall
  currentdict
  end
/Font5 exch definefont pop
%%EndProlog
ep
%%Trailer
%%Pages: 0
%%EOF
.56 358.56 cl
/bg { 0 0 1 srgb } def
0 0 1 srgb
0.75 setlinewidth
[] 0 setdash
1 setlinecap
1 setlinejoin
10.00 setmiterlimit
51.68 41.01 1.80 c p3
53.92 331.43 1.80 c p3
56.17 41.01 1.80 c p3
58.41 331.58 1.80 c p3
60.65 41.01 1.80 c p3
62.90 329.98 1.80 c p3
65.14 41.01 1.80 c p3
67.38 330.71 1.80 c p3
69.63 41.01 1.80 c p3
71.87 326.36 1.80 c p3
74.11 41.01 1.80 c p3
76.35 335.85 1.80 c p3
78.60 41.01 1.80 c p3
80.84 329.69 1.80 c p3
83.08 41.01 1.80 c p3
85.33 337.73 1.80 c p3
87.57 41.01 1.80 c p3
89.81 328.53 1.80 c p3
92.06 41.01 1.80 c p3
94.30 335.85 1.80 c p3
96.54 41.01 1.80 c p3
98.79 328.90 1.80 c p3
101.03 41.01 1.80 c p3
103.27 334.40 1.80 c p3
105.52 41.01 1.80 c p3
107.76 326.58 1.80 c p3
110.00 41.01 1.80 c p3
112.24 326.72 1.80 c p3
114.49 41.01 1.80 c p3
116.73 335.20 1.80 c p3
118.97 41.01 1.80 c p3
121.22 323.10 1.80 c p3
123.46 41.01 1.80 c p3
125.70 324.05 1.80 c p3
127.95 41.01 1.80 c p3
130.19 335.63 1.80 c p3
132.43 41.01 1.80 c p3
134.68 322.45 1.80 c p3
136.92 41.01 1.80 c p3
139.16 324.91 1.80 c p3
141.41 41.01 1.80 c p3
143.65 333.53 1.80 c p3
145.89 41.01 1.80 c p3
148.13 332.30 1.80 c p3
150.38 41.01 1.80 c p3
152.62 321.51 1.80 c p3
154.86 41.01 1.80 c p3
157.11 331.94 1.80 c p3
159.35 41.01 1.80 c p3
161.59 330.20 1.80 c p3
163.84 41.01 1.80 c p3
166.08 336.64 1.80 c p3
168.32 41.01 1.80 c p3
170.57 328.10 1.80 c p3
172.81 41.01 1.80 c p3
175.05 325.78 1.80 c p3
177.30 41.01 1.80 c p3
179.54 324.63 1.80 c p3
181.78 41.01 1.80 c p3
184.03 325.78 1.80 c p3
186.27 41.01 1.80 c p3
188.51 328.10 1.80 c p3
190.75 41.01 1.80 c p3
193.00 327.30 1.80 c p3
195.24 41.01 1.80 c p3
197.48 330.63 1.80 c p3
199.73 41.01 1.80 c p3
201.97 335.20 1.80 c p3
204.21 41.01 1.80 c p3
206.46 331.43 1.80 c p3
208.70 41.01 1.80 c p3
210.94 329.33 1.80 c p3
213.19 41.01 1.80 c p3
215.43 331.65 1.80 c p3
217.67 41.01 1.80 c p3
219.92 331.29 1.80 c p3
222.16 41.01 1.80 c p3
224.40 337.44 1.80 c p3
226.64 41.01 1.80 c p3
228.89 327.81 1.80 c p3
231.13 41.01 1.80 c p3
233.37 330.13 1.80 c p3
235.62 41.01 1.80 c p3
237.86 334.18 1.80 c p3
240.10 41.01 1.80 c p3
242.35 331.50 1.80 c p3
244.59 41.01 1.80 c p3
246.83 331.00 1.80 c p3
249.08 41.01 1.80 c p3
251.32 329.04 1.80 c p3
253.56 41.01 1.80 c p3
255.81 346.35 1.80 c p3
258.05 41.01 1.80 c p3
260.29 330.71 1.80 c p3
262.53 41.01 1.80 c p3
264.78 329.55 1.80 c p3
267.02 41.01 1.80 c p3
269.26 330.56 1.80 c p3
271.51 41.01 1.80 c p3
273.75 337.08 1.80 c p3
275.99 41.01 1.80 c p3
278.24 344.97 1.80 c p3
280.48 41.01 1.80 c p3
282.72 327.09 1.80 c p3
284.97 41.01 1.80 c p3
287.21 326.22 1.80 c p3
289.45 41.01 1.80 c p3
291.70 330.49 1.80 c p3
293.94 41.01 1.80 c p3
296.18 336.35 1.80 c p3
298.43 41.01 1.80 c p3
300.67 329.55 1.80 c p3
302.91 41.01 1.80 c p3
305.15 324.55 1.80 c p3
307.40 41.01 1.80 c p3
309.64 322.60 1.80 c p3
311.88 41.01 1.80 c p3
314.13 335.27 1.80 c p3
316.37 41.01 1.80 c p3
318.61 331.43 1.80 c p3
320.86 41.01 1.80 c p3
323.10 329.33 1.80 c p3
325.34 41.01 1.80 c p3
327.59 329.91 1.80 c p3
329.83 41.01 1.80 c p3
332.07 330.92 1.80 c p3
334.32 41.01 1.80 c p3
336.56 334.04 1.80 c p3
338.80 41.01 1.80 c p3
341.04 325.49 1.80 c p3
343.29 41.01 1.80 c p3
345.53 339.32 1.80 c p3
347.77 41.01 1.80 c p3
350.02 329.69 1.80 c p3
352.26 41.01 1.80 c p3
354.50 326.65 1.80 c p3
356.75 41.01 1.80 c p3
358.99 333.68 1.80 c p3
361.23 41.01 1.80 c p3
363.48 333.82 1.80 c p3
365.72 41.01 1.80 c p3
367.96 330.92 1.80 c p3
370.21 41.01 1.80 c p3
372.45 323.32 1.80 c p3
374.69 41.01 1.80 c p3
376.93 332.37 1.80 c p3
379.18 41.01 1.80 c p3
381.42 333.60 1.80 c p3
383.66 41.01 1.80 c p3
385.91 331.43 1.80 c p3
388.15 41.01 1.80 c p3
390.39 323.39 1.80 c p3
392.64 41.01 1.80 c p3
394.88 327.30 1.80 c p3
397.12 41.01 1.80 c p3
399.37 342.22 1.80 c p3
401.61 41.01 1.80 c p3
403.85 333.46 1.80 c p3
406.10 41.01 1.80 c p3
408.34 333.97 1.80 c p3
410.58 41.01 1.80 c p3
412.83 339.18 1.80 c p3
415.07 41.01 1.80 c p3
417.31 332.37 1.80 c p3
419.55 41.01 1.80 c p3
421.80 334.47 1.80 c p3
424.04 41.01 1.80 c p3
426.28 333.60 1.80 c p3
428.53 41.01 1.80 c p3
430.77 323.61 1.80 c p3
433.01 41.01 1.80 c p3
435.26 336.57 1.80 c p3
437.50 41.01 1.80 c p3
439.74 328.46 1.80 c p3
441.99 41.01 1.80 c p3
444.23 329.33 1.80 c p3
446.47 41.01 1.80 c p3
448.72 329.91 1.80 c p3
450.96 41.01 1.80 c p3
453.20 336.50 1.80 c p3
455.44 41.01 1.80 c p3
457.69 334.98 1.80 c p3
459.93 41.01 1.80 c p3
462.17 328.75 1.80 c p3
464.42 41.01 1.80 c p3
466.66 331.65 1.80 c p3
468.90 41.01 1.80 c p3
471.15 325.20 1.80 c p3
473.39 41.01 1.80 c p3
475.63 330.27 1.80 c p3
477.88 41.01 1.80 c p3
480.12 334.25 1.80 c p3
482.36 41.01 1.80 c p3
484.61 321.87 1.80 c p3
486.85 41.01 1.80 c p3
489.09 332.01 1.80 c p3
491.33 41.01 1.80 c p3
493.58 334.40 1.80 c p3
495.82 41.01 1.80 c p3
498.06 329.98 1.80 c p3
500.31 41.01 1.80 c p3
502.55 333.53 1.80 c p3
504.79 41.01 1.80 c p3
507.04 327.45 1.80 c p3
509.28 41.01 1.80 c p3
511.52 333.39 1.80 c p3
513.77 41.01 1.80 c p3
516.01 334.62 1.80 c p3
518.25 41.01 1.80 c p3
520.50 331.43 1.80 c p3
522.74 41.01 1.80 c p3
524.98 318.54 1.80 c p3
527.23 41.01 1.80 c p3
529.47 325.71 1.80 c p3
531.71 41.01 1.80 c p3
533.95 329.84 1.80 c p3
536.20 41.01 1.80 c p3
538.44 338.82 1.80 c p3
540.68 41.01 1.80 c p3
542.93 335.20 1.80 c p3
545.17 41.01 1.80 c p3
547.41 331.43 1.80 c p3
549.66 41.01 1.80 c p3
551.90 334.11 1.80 c p3
554.14 41.01 1.80 c p3
556.39 331.29 1.80 c p3
558.63 41.01 1.80 c p3
560.87 318.04 1.80 c p3
563.12 41.01 1.80 c p3
565.36 329.40 1.80 c p3
567.60 41.01 1.80 c p3
569.84 323.39 1.80 c p3
572.09 41.01 1.80 c p3
574.33 328.17 1.80 c p3
576.57 41.01 1.80 c p3
578.82 331.21 1.80 c p3
581.06 41.01 1.80 c p3
583.30 328.53 1.80 c p3
585.55 41.01 1.80 c p3
587.79 324.48 1.80 c p3
590.03 41.01 1.80 c p3
592.28 332.73 1.80 c p3
594.52 41.01 1.80 c p3
596.76 331.79 1.80 c p3
599.01 41.01 1.80 c p3
601.25 325.06 1.80 c p3
603.49 41.01 1.80 c p3
605.73 330.56 1.80 c p3
607.98 41.01 1.80 c p3
610.22 327.45 1.80 c p3
612.46 41.01 1.80 c p3
614.71 332.73 1.80 c p3
616.95 41.01 1.80 c p3
619.19 330.49 1.80 c p3
621.44 41.01 1.80 c p3
623.68 330.71 1.80 c p3
0.00 0.00 648.00 360.00 cl
0 0 0 srgb
0.75 setlinewidth
[] 0 setdash
1 setlinecap
1 setlinejoin
10.00 setmiterlimit
np
51.68 28.80 m
560.78 0 l
o
np
51.68 28.80 m
0 -7.20 l
o
np
163.84 28.80 m
0 -7.20 l
o
np
275.99 28.80 m
0 -7.20 l
o
np
388.15 28.80 m
0 -7.20 l
o
np
500.31 28.80 m
0 -7.20 l
o
np
612.46 28.80 m
0 -7.20 l
o
/Font1 findfont 12 s
51.68 2.88 (0) .5 0 t
163.84 2.88 (50) .5 0 t
275.99 2.88 (100) .5 0 t
388.15 2.88 (150) .5 0 t
500.31 2.88 (200) .5 0 t
612.46 2.88 (250) .5 0 t
np
28.80 41.01 m
0 289.62 l
o
np
28.80 41.01 m
-7.20 0 l
o
np
28.80 113.42 m
-7.20 0 l
o
np
28.80 185.82 m
-7.20 0 l
o
np
28.80 258.23 m
-7.20 0 l
o
np
28.80 330.63 m
-7.20 0 l
o
11.52 41.01 (0) .5 90 t
11.52 113.42 (1000) .5 90 t
11.52 185.82 (2000) .5 90 t
11.52 258.23 (3000) .5 90 t
11.52 330.63 (4000) .5 90 t
np
28.80 28.80 m
617.76 0 l
0 329.76 l
-617.76 0 l
0 -329.76 l
o
0.00 0.00 648.00 360.00 cl
28.80 28.80 646.56 358.56 cl
0.8039 0 0 srgb
0.75 setlinewidth
[] 0 setdash
1 setlinecap
1 setlinejoin
10.00 setmiterlimit
np
28.80 185.82 m
617.76 0 l
o
ep
%%Trailer
%%Pages: 1
%%EOF
