%!PS-Adobe-3.0 EPSF-3.0
%%DocumentNeededResources: font Helvetica
%%+ font Helvetica-Bold
%%+ font Helvetica-Oblique
%%+ font Helvetica-BoldOblique
%%+ font Symbol
%%Title: R Graphics Output
%%Creator: R Software
%%Pages: (atend)
%%BoundingBox: 0 0 648 360
%%EndComments
%%BeginProlog
/bp  { gs sRGB gs } def
% begin .ps.prolog
/gs  { gsave } bind def
/gr  { grestore } bind def
/ep  { showpage gr gr } bind def
/m   { moveto } bind def
/l  { rlineto } bind def
/np  { newpath } bind def
/cp  { closepath } bind def
/f   { fill } bind def
/o   { stroke } bind def
/c   { newpath 0 360 arc } bind def
/r   { 4 2 roll moveto 1 copy 3 -1 roll exch 0 exch rlineto 0 rlineto -1 mul 0 exch rlineto closepath } bind def
/p1  { stroke } bind def
/p2  { gsave bg fill grestore newpath } bind def
/p3  { gsave bg fill grestore stroke } bind def
/p6  { gsave bg eofill grestore newpath } bind def
/p7  { gsave bg eofill grestore stroke } bind def
/t   { 5 -2 roll moveto gsave rotate
       1 index stringwidth pop
       mul neg 0 rmoveto show grestore } bind def
/ta  { 4 -2 roll moveto gsave rotate show } bind def
/tb  { 2 -1 roll 0 rmoveto show } bind def
/cl  { grestore gsave newpath 3 index 3 index moveto 1 index
       4 -1 roll lineto  exch 1 index lineto lineto
       closepath clip newpath } bind def
/rgb { setrgbcolor } bind def
/s   { scalefont setfont } bind def
% end   .ps.prolog
/sRGB { [ /CIEBasedABC
          << /DecodeLMN
               [ { dup 0.03928 le
                        {12.92321 div}
                        {0.055 add 1.055 div 2.4 exp }
                     ifelse
                 } bind dup dup
               ]
             /MatrixLMN [0.412457 0.212673 0.019334
                         0.357576 0.715152 0.119192
                         0.180437 0.072175 0.950301]
             /WhitePoint [0.9505 1.0 1.0890]
           >>
         ] setcolorspace } bind def
/srgb { setcolor } bind def
%%IncludeResource: font Helvetica
/Helvetica findfont
dup length dict begin
  {1 index /FID ne {def} {pop pop} ifelse} forall
  /Encoding ISOLatin1Encoding def
  currentdict
  end
/Font1 exch definefont pop
%%IncludeResource: font Helvetica-Bold
/Helvetica-Bold findfont
dup length dict begin
  {1 index /FID ne {def} {pop pop} ifelse} forall
  /Encoding ISOLatin1Encoding def
  currentdict
  end
/Font2 exch definefont pop
%%IncludeResource: font Helvetica-Oblique
/Helvetica-Oblique findfont
dup length dict begin
  {1 index /FID ne {def} {pop pop} ifelse} forall
  /Encoding ISOLatin1Encoding def
  currentdict
  end
/Font3 exch definefont pop
%%IncludeResource: font Helvetica-BoldOblique
/Helvetica-BoldOblique findfont
dup length dict begin
  {1 index /FID ne {def} {pop pop} ifelse} forall
  /Encoding ISOLatin1Encoding def
  currentdict
  end
/Font4 exch definefont pop
%%IncludeResource: font Symbol
/Symbol findfont
dup length dict begin
  {1 index /FID ne {def} {pop pop} ifelse} forall
  currentdict
  end
/Font5 exch definefont pop
%%EndProlog
%%Page: 1 1
bp
28.80 28.80 646.56 358.56 cl
/bg { 0 0 1 srgb } def
0 0 1 srgb
0.75 setlinewidth
[] 0 setdash
1 setlinecap
1 setlinejoin
10.00 setmiterlimit
51.68 41.45 1.80 c p3
53.92 41.55 1.80 c p3
56.17 41.48 1.80 c p3
58.41 41.82 1.80 c p3
60.65 41.43 1.80 c p3
62.90 41.63 1.80 c p3
65.14 41.46 1.80 c p3
67.38 42.88 1.80 c p3
69.63 41.37 1.80 c p3
71.87 41.49 1.80 c p3
74.11 41.39 1.80 c p3
76.35 41.92 1.80 c p3
78.60 41.40 1.80 c p3
80.84 41.68 1.80 c p3
83.08 41.76 1.80 c p3
85.33 46.37 1.80 c p3
87.57 41.38 1.80 c p3
89.81 41.50 1.80 c p3
92.06 41.37 1.80 c p3
94.30 41.98 1.80 c p3
96.54 41.42 1.80 c p3
98.79 41.54 1.80 c p3
101.03 41.34 1.80 c p3
103.27 43.07 1.80 c p3
105.52 41.63 1.80 c p3
107.76 42.14 1.80 c p3
110.00 41.55 1.80 c p3
112.24 42.49 1.80 c p3
114.49 42.57 1.80 c p3
116.73 43.21 1.80 c p3
118.97 44.65 1.80 c p3
121.22 53.88 1.80 c p3
123.46 41.47 1.80 c p3
125.70 41.55 1.80 c p3
127.95 41.43 1.80 c p3
130.19 41.97 1.80 c p3
132.43 41.79 1.80 c p3
134.68 42.30 1.80 c p3
136.92 42.63 1.80 c p3
139.16 44.52 1.80 c p3
141.41 41.45 1.80 c p3
143.65 42.04 1.80 c p3
145.89 41.97 1.80 c p3
148.13 43.16 1.80 c p3
150.38 41.81 1.80 c p3
152.62 44.17 1.80 c p3
154.86 43.48 1.80 c p3
157.11 50.60 1.80 c p3
159.35 41.38 1.80 c p3
161.59 42.25 1.80 c p3
163.84 41.78 1.80 c p3
166.08 46.67 1.80 c p3
168.32 41.90 1.80 c p3
170.57 42.94 1.80 c p3
172.81 44.29 1.80 c p3
175.05 50.72 1.80 c p3
177.30 42.47 1.80 c p3
179.54 45.76 1.80 c p3
181.78 43.64 1.80 c p3
184.03 51.04 1.80 c p3
186.27 45.60 1.80 c p3
188.51 50.56 1.80 c p3
190.75 51.60 1.80 c p3
193.00 75.59 1.80 c p3
195.24 41.39 1.80 c p3
197.48 41.58 1.80 c p3
199.73 41.32 1.80 c p3
201.97 41.99 1.80 c p3
204.21 41.38 1.80 c p3
206.46 41.58 1.80 c p3
208.70 41.39 1.80 c p3
210.94 43.14 1.80 c p3
213.19 41.32 1.80 c p3
215.43 42.57 1.80 c p3
217.67 42.68 1.80 c p3
219.92 45.59 1.80 c p3
222.16 41.77 1.80 c p3
224.40 43.98 1.80 c p3
226.64 42.97 1.80 c p3
228.89 50.96 1.80 c p3
231.13 41.32 1.80 c p3
233.37 41.59 1.80 c p3
235.62 42.38 1.80 c p3
237.86 42.98 1.80 c p3
240.10 41.88 1.80 c p3
242.35 48.31 1.80 c p3
244.59 44.55 1.80 c p3
246.83 52.29 1.80 c p3
249.08 41.68 1.80 c p3
251.32 43.26 1.80 c p3
253.56 46.75 1.80 c p3
255.81 51.44 1.80 c p3
258.05 43.47 1.80 c p3
260.29 51.87 1.80 c p3
262.53 52.03 1.80 c p3
264.78 72.09 1.80 c p3
267.02 41.39 1.80 c p3
269.26 41.53 1.80 c p3
271.51 41.44 1.80 c p3
273.75 43.43 1.80 c p3
275.99 42.57 1.80 c p3
278.24 43.12 1.80 c p3
280.48 47.02 1.80 c p3
282.72 52.20 1.80 c p3
284.97 41.36 1.80 c p3
287.21 44.59 1.80 c p3
289.45 44.51 1.80 c p3
291.70 52.91 1.80 c p3
293.94 44.41 1.80 c p3
296.18 54.19 1.80 c p3
298.43 52.27 1.80 c p3
300.67 72.59 1.80 c p3
302.91 41.72 1.80 c p3
305.15 44.32 1.80 c p3
307.40 42.95 1.80 c p3
309.64 53.78 1.80 c p3
311.88 43.20 1.80 c p3
314.13 52.46 1.80 c p3
316.37 52.16 1.80 c p3
318.61 72.09 1.80 c p3
320.86 44.34 1.80 c p3
323.10 51.42 1.80 c p3
325.34 51.74 1.80 c p3
327.59 72.29 1.80 c p3
329.83 51.76 1.80 c p3
332.07 72.37 1.80 c p3
334.32 72.56 1.80 c p3
336.56 129.53 1.80 c p3
338.80 41.42 1.80 c p3
341.04 41.88 1.80 c p3
343.29 41.61 1.80 c p3
345.53 42.53 1.80 c p3
347.77 41.45 1.80 c p3
350.02 41.73 1.80 c p3
352.26 41.54 1.80 c p3
354.50 45.10 1.80 c p3
356.75 41.54 1.80 c p3
358.99 41.84 1.80 c p3
361.23 41.56 1.80 c p3
363.48 42.54 1.80 c p3
365.72 42.26 1.80 c p3
367.96 42.62 1.80 c p3
370.21 44.17 1.80 c p3
372.45 52.02 1.80 c p3
374.69 41.51 1.80 c p3
376.93 41.87 1.80 c p3
379.18 42.63 1.80 c p3
381.42 45.04 1.80 c p3
383.66 41.78 1.80 c p3
385.91 43.70 1.80 c p3
388.15 44.69 1.80 c p3
390.39 50.51 1.80 c p3
392.64 42.07 1.80 c p3
394.88 46.45 1.80 c p3
397.12 43.06 1.80 c p3
399.37 52.86 1.80 c p3
401.61 45.90 1.80 c p3
403.85 51.82 1.80 c p3
406.10 52.02 1.80 c p3
408.34 73.85 1.80 c p3
410.58 41.48 1.80 c p3
412.83 41.68 1.80 c p3
415.07 41.58 1.80 c p3
417.31 42.50 1.80 c p3
419.55 42.13 1.80 c p3
421.80 45.94 1.80 c p3
424.04 42.83 1.80 c p3
426.28 49.97 1.80 c p3
428.53 41.55 1.80 c p3
430.77 43.77 1.80 c p3
433.01 48.21 1.80 c p3
435.26 53.25 1.80 c p3
437.50 43.02 1.80 c p3
439.74 53.70 1.80 c p3
441.99 52.73 1.80 c p3
444.23 73.85 1.80 c p3
446.47 41.60 1.80 c p3
448.72 42.60 1.80 c p3
450.96 43.94 1.80 c p3
453.20 51.79 1.80 c p3
455.44 44.30 1.80 c p3
457.69 53.90 1.80 c p3
459.93 54.34 1.80 c p3
462.17 74.89 1.80 c p3
464.42 43.23 1.80 c p3
466.66 51.35 1.80 c p3
468.90 52.60 1.80 c p3
471.15 72.85 1.80 c p3
473.39 50.29 1.80 c p3
475.63 74.35 1.80 c p3
477.88 72.69 1.80 c p3
480.12 125.59 1.80 c p3
482.36 41.76 1.80 c p3
484.61 42.47 1.80 c p3
486.85 41.75 1.80 c p3
489.09 44.85 1.80 c p3
491.33 41.84 1.80 c p3
493.58 42.71 1.80 c p3
495.82 43.36 1.80 c p3
498.06 52.85 1.80 c p3
500.31 41.94 1.80 c p3
502.55 45.31 1.80 c p3
504.79 43.06 1.80 c p3
507.04 50.07 1.80 c p3
509.28 46.63 1.80 c p3
511.52 51.85 1.80 c p3
513.77 54.03 1.80 c p3
516.01 75.27 1.80 c p3
518.25 42.05 1.80 c p3
520.50 42.54 1.80 c p3
522.74 45.91 1.80 c p3
524.98 49.41 1.80 c p3
527.23 43.22 1.80 c p3
529.47 53.44 1.80 c p3
531.71 52.79 1.80 c p3
533.95 74.61 1.80 c p3
536.20 42.38 1.80 c p3
538.44 52.56 1.80 c p3
540.68 51.69 1.80 c p3
542.93 76.91 1.80 c p3
545.17 51.57 1.80 c p3
547.41 73.07 1.80 c p3
549.66 72.62 1.80 c p3
551.90 126.14 1.80 c p3
554.14 43.08 1.80 c p3
556.39 45.23 1.80 c p3
558.63 42.99 1.80 c p3
560.87 53.45 1.80 c p3
563.12 44.54 1.80 c p3
565.36 50.00 1.80 c p3
567.60 51.53 1.80 c p3
569.84 76.79 1.80 c p3
572.09 42.85 1.80 c p3
574.33 51.14 1.80 c p3
576.57 52.42 1.80 c p3
578.82 73.56 1.80 c p3
581.06 50.85 1.80 c p3
583.30 74.05 1.80 c p3
585.55 72.15 1.80 c p3
587.79 125.25 1.80 c p3
590.03 46.38 1.80 c p3
592.28 51.60 1.80 c p3
594.52 51.51 1.80 c p3
596.76 73.72 1.80 c p3
599.01 50.40 1.80 c p3
601.25 74.02 1.80 c p3
603.49 72.98 1.80 c p3
605.73 125.54 1.80 c p3
607.98 54.16 1.80 c p3
610.22 74.16 1.80 c p3
612.46 71.91 1.80 c p3
614.71 126.33 1.80 c p3
616.95 76.03 1.80 c p3
619.19 125.46 1.80 c p3
621.44 129.13 1.80 c p3
623.68 346.35 1.80 c p3
0.00 0.00 648.00 360.00 cl
0 0 0 srgb
0.75 setlinewidth
[] 0 setdash
1 setlinecap
1 setlinejoin
10.00 setmiterlimit
np
51.68 28.80 m
560.78 0 l
o
np
51.68 28.80 m
0 -7.20 l
o
np
163.84 28.80 m
0 -7.20 l
o
np
275.99 28.80 m
0 -7.20 l
o
np
388.15 28.80 m
0 -7.20 l
o
np
500.31 28.80 m
0 -7.20 l
o
np
612.46 28.80 m
0 -7.20 l
o
/Font1 findfont 12 s
51.68 2.88 (0) .5 0 t
163.84 2.88 (50) .5 0 t
275.99 2.88 (100) .5 0 t
388.15 2.88 (150) .5 0 t
500.31 2.88 (200) .5 0 t
612.46 2.88 (250) .5 0 t
np
28.80 41.01 m
0 275.19 l
o
np
28.80 41.01 m
-7.20 0 l
o
np
28.80 96.05 m
-7.20 0 l
o
np
28.80 151.09 m
-7.20 0 l
o
np
28.80 206.12 m
-7.20 0 l
o
np
28.80 261.16 m
-7.20 0 l
o
np
28.80 316.20 m
-7.20 0 l
o
11.52 41.01 (0) .5 90 t
11.52 96.05 (10000) .5 90 t
11.52 151.09 (20000) .5 90 t
11.52 206.12 (30000) .5 90 t
11.52 261.16 (40000) .5 90 t
11.52 316.20 (50000) .5 90 t
np
28.80 28.80 m
617.76 0 l
0 329.76 l
-617.76 0 l
0 -329.76 l
o
0.00 0.00 648.00 360.00 cl
28.80 28.80 646.56 358.56 cl
0.8039 0 0 srgb
0.75 setlinewidth
[] 0 setdash
1 setlinecap
1 setlinejoin
10.00 setmiterlimit
np
28.80 52.02 m
617.76 0 l
o
ep
%%Trailer
%%Pages: 1
%%EOF
