%!PS-Adobe-3.0 EPSF-3.0
%%DocumentNeededResources: font Helvetica
%%+ font Helvetica-Bold
%%+ font Helvetica-Oblique
%%+ font Helvetica-BoldOblique
%%+ font Symbol
%%Title: R Graphics Output
%%Creator: R Software
%%Pages: (atend)
%%BoundingBox: 0 0 648 360
%%EndComments
%%BeginProlog
/bp  { gs sRGB gs } def
% begin .ps.prolog
/gs  { gsave } bind def
/gr  { grestore } bind def
/ep  { showpage gr gr } bind def
/m   { moveto } bind def
/l  { rlineto } bind def
/np  { newpath } bind def
/cp  { closepath } bind def
/f   { fill } bind def
/o   { stroke } bind def
/c   { newpath 0 360 arc } bind def
/r   { 4 2 roll moveto 1 copy 3 -1 roll exch 0 exch rlineto 0 rlineto -1 mul 0 exch rlineto closepath } bind def
/p1  { stroke } bind def
/p2  { gsave bg fill grestore newpath } bind def
/p3  { gsave bg fill grestore stroke } bind def
/p6  { gsave bg eofill grestore newpath } bind def
/p7  { gsave bg eofill grestore stroke } bind def
/t   { 5 -2 roll moveto gsave rotate
       1 index stringwidth pop
       mul neg 0 rmoveto show grestore } bind def
/ta  { 4 -2 roll moveto gsave rotate show } bind def
/tb  { 2 -1 roll 0 rmoveto show } bind def
/cl  { grestore gsave newpath 3 index 3 index moveto 1 index
       4 -1 roll lineto  exch 1 index lineto lineto
       closepath clip newpath } bind def
/rgb { setrgbcolor } bind def
/s   { scalefont setfont } bind def
% end   .ps.prolog
/sRGB { [ /CIEBasedABC
          << /DecodeLMN
               [ { dup 0.03928 le
                        {12.92321 div}
                        {0.055 add 1.055 div 2.4 exp }
                     ifelse
                 } bind dup dup
               ]
             /MatrixLMN [0.412457 0.212673 0.019334
                         0.357576 0.715152 0.119192
                         0.180437 0.072175 0.950301]
             /WhitePoint [0.9505 1.0 1.0890]
           >>
         ] setcolorspace } bind def
/srgb { setcolor } bind def
%%IncludeResource: font Helvetica
/Helvetica findfont
dup length dict begin
  {1 index /FID ne {def} {pop pop} ifelse} forall
  /Encoding ISOLatin1Encoding def
  currentdict
  end
/Font1 exch definefont pop
%%IncludeResource: font Helvetica-Bold
/Helvetica-Bold findfont
dup length dict begin
  {1 index /FID ne {def} {pop pop} ifelse} forall
  /Encoding ISOLatin1Encoding def
  currentdict
  end
/Font2 exch definefont pop
%%IncludeResource: font Helvetica-Oblique
/Helvetica-Oblique findfont
dup length dict begin
  {1 index /FID ne {def} {pop pop} ifelse} forall
  /Encoding ISOLatin1Encoding def
  currentdict
  end
/Font3 exch definefont pop
%%IncludeResource: font Helvetica-BoldOblique
/Helvetica-BoldOblique findfont
dup length dict begin
  {1 index /FID ne {def} {pop pop} ifelse} forall
  /Encoding ISOLatin1Encoding def
  currentdict
  end
/Font4 exch definefont pop
%%IncludeResource: font Symbol
/Symbol findfont
dup length dict begin
  {1 index /FID ne {def} {pop pop} ifelse} forall
  currentdict
  end
/Font5 exch definefont pop
%%EndProlog
%%Page: 1 1
bp
28.80 28.80 646.56 358.56 cl
/bg { 0 0 1 srgb } def
0 0 1 srgb
0.75 setlinewidth
[] 0 setdash
1 setlinecap
1 setlinejoin
10.00 setmiterlimit
51.68 325.69 1.80 c p3
53.92 337.25 1.80 c p3
56.17 334.65 1.80 c p3
58.41 322.80 1.80 c p3
60.65 329.45 1.80 c p3
62.90 327.57 1.80 c p3
65.14 336.09 1.80 c p3
67.38 341.87 1.80 c p3
69.63 326.56 1.80 c p3
71.87 334.21 1.80 c p3
74.11 324.39 1.80 c p3
76.35 324.68 1.80 c p3
78.60 317.89 1.80 c p3
80.84 342.59 1.80 c p3
83.08 329.45 1.80 c p3
85.33 335.23 1.80 c p3
87.57 325.55 1.80 c p3
89.81 339.12 1.80 c p3
92.06 325.26 1.80 c p3
94.30 339.41 1.80 c p3
96.54 327.14 1.80 c p3
98.79 329.30 1.80 c p3
101.03 346.35 1.80 c p3
103.27 329.74 1.80 c p3
105.52 338.11 1.80 c p3
107.76 335.80 1.80 c p3
110.00 319.77 1.80 c p3
112.24 333.35 1.80 c p3
114.49 327.57 1.80 c p3
116.73 323.96 1.80 c p3
118.97 327.86 1.80 c p3
121.22 326.13 1.80 c p3
123.46 333.64 1.80 c p3
125.70 329.88 1.80 c p3
127.95 334.65 1.80 c p3
130.19 323.81 1.80 c p3
132.43 326.56 1.80 c p3
134.68 333.78 1.80 c p3
136.92 337.39 1.80 c p3
139.16 338.55 1.80 c p3
141.41 331.04 1.80 c p3
143.65 319.63 1.80 c p3
145.89 323.09 1.80 c p3
148.13 332.48 1.80 c p3
150.38 338.84 1.80 c p3
152.62 331.04 1.80 c p3
154.86 321.79 1.80 c p3
157.11 340.14 1.80 c p3
159.35 329.01 1.80 c p3
161.59 318.18 1.80 c p3
163.84 344.32 1.80 c p3
166.08 328.87 1.80 c p3
168.32 339.85 1.80 c p3
170.57 325.11 1.80 c p3
172.81 331.61 1.80 c p3
175.05 326.99 1.80 c p3
177.30 343.02 1.80 c p3
179.54 337.25 1.80 c p3
181.78 340.57 1.80 c p3
184.03 335.80 1.80 c p3
186.27 328.44 1.80 c p3
188.51 335.51 1.80 c p3
190.75 332.19 1.80 c p3
193.00 330.89 1.80 c p3
195.24 323.67 1.80 c p3
197.48 335.08 1.80 c p3
199.73 332.19 1.80 c p3
201.97 334.79 1.80 c p3
204.21 328.73 1.80 c p3
206.46 326.85 1.80 c p3
208.70 330.46 1.80 c p3
210.94 338.40 1.80 c p3
213.19 333.49 1.80 c p3
215.43 332.77 1.80 c p3
217.67 332.77 1.80 c p3
219.92 340.28 1.80 c p3
222.16 329.74 1.80 c p3
224.40 332.34 1.80 c p3
226.64 332.77 1.80 c p3
228.89 333.20 1.80 c p3
231.13 345.77 1.80 c p3
233.37 332.19 1.80 c p3
235.62 346.20 1.80 c p3
237.86 329.16 1.80 c p3
240.10 323.24 1.80 c p3
242.35 323.24 1.80 c p3
244.59 329.88 1.80 c p3
246.83 329.45 1.80 c p3
249.08 342.16 1.80 c p3
251.32 330.03 1.80 c p3
253.56 316.59 1.80 c p3
255.81 318.90 1.80 c p3
258.05 322.23 1.80 c p3
260.29 317.46 1.80 c p3
262.53 330.46 1.80 c p3
264.78 326.56 1.80 c p3
267.02 316.30 1.80 c p3
269.26 339.27 1.80 c p3
271.51 320.06 1.80 c p3
273.75 335.23 1.80 c p3
275.99 335.66 1.80 c p3
278.24 322.80 1.80 c p3
280.48 318.62 1.80 c p3
282.72 339.12 1.80 c p3
284.97 333.20 1.80 c p3
287.21 321.07 1.80 c p3
289.45 324.39 1.80 c p3
291.70 337.25 1.80 c p3
293.94 335.08 1.80 c p3
296.18 328.29 1.80 c p3
298.43 335.37 1.80 c p3
300.67 337.10 1.80 c p3
302.91 326.70 1.80 c p3
305.15 326.41 1.80 c p3
307.40 324.10 1.80 c p3
309.64 329.88 1.80 c p3
311.88 331.76 1.80 c p3
314.13 329.01 1.80 c p3
316.37 334.36 1.80 c p3
318.61 323.09 1.80 c p3
320.86 319.19 1.80 c p3
323.10 335.80 1.80 c p3
325.34 321.50 1.80 c p3
327.59 328.29 1.80 c p3
329.83 326.56 1.80 c p3
332.07 330.60 1.80 c p3
334.32 341.87 1.80 c p3
336.56 334.79 1.80 c p3
338.80 322.52 1.80 c p3
341.04 330.31 1.80 c p3
343.29 336.24 1.80 c p3
345.53 335.66 1.80 c p3
347.77 320.06 1.80 c p3
350.02 332.77 1.80 c p3
352.26 330.17 1.80 c p3
354.50 322.08 1.80 c p3
356.75 324.25 1.80 c p3
358.99 322.80 1.80 c p3
361.23 329.30 1.80 c p3
363.48 336.38 1.80 c p3
365.72 328.73 1.80 c p3
367.96 323.24 1.80 c p3
370.21 330.17 1.80 c p3
372.45 333.06 1.80 c p3
374.69 343.89 1.80 c p3
376.93 329.59 1.80 c p3
379.18 332.91 1.80 c p3
381.42 320.78 1.80 c p3
383.66 323.81 1.80 c p3
385.91 321.36 1.80 c p3
388.15 314.86 1.80 c p3
390.39 324.25 1.80 c p3
392.64 334.50 1.80 c p3
394.88 319.19 1.80 c p3
397.12 316.88 1.80 c p3
399.37 323.81 1.80 c p3
401.61 333.06 1.80 c p3
403.85 324.39 1.80 c p3
406.10 326.85 1.80 c p3
408.34 326.41 1.80 c p3
410.58 318.04 1.80 c p3
412.83 327.43 1.80 c p3
415.07 324.10 1.80 c p3
417.31 324.83 1.80 c p3
419.55 334.07 1.80 c p3
421.80 331.47 1.80 c p3
424.04 328.15 1.80 c p3
426.28 331.90 1.80 c p3
428.53 328.44 1.80 c p3
430.77 329.45 1.80 c p3
433.01 331.76 1.80 c p3
435.26 329.16 1.80 c p3
437.50 322.08 1.80 c p3
439.74 318.62 1.80 c p3
441.99 324.54 1.80 c p3
444.23 332.05 1.80 c p3
446.47 329.74 1.80 c p3
448.72 333.49 1.80 c p3
450.96 330.89 1.80 c p3
453.20 332.63 1.80 c p3
455.44 332.77 1.80 c p3
457.69 324.83 1.80 c p3
459.93 319.48 1.80 c p3
462.17 332.34 1.80 c p3
464.42 336.09 1.80 c p3
466.66 337.68 1.80 c p3
468.90 327.28 1.80 c p3
471.15 328.29 1.80 c p3
473.39 319.77 1.80 c p3
475.63 330.17 1.80 c p3
477.88 326.56 1.80 c p3
480.12 328.73 1.80 c p3
482.36 328.58 1.80 c p3
484.61 335.80 1.80 c p3
486.85 325.11 1.80 c p3
489.09 321.22 1.80 c p3
491.33 321.50 1.80 c p3
493.58 325.26 1.80 c p3
495.82 338.40 1.80 c p3
498.06 327.14 1.80 c p3
500.31 324.25 1.80 c p3
502.55 328.15 1.80 c p3
504.79 322.66 1.80 c p3
507.04 333.20 1.80 c p3
509.28 332.48 1.80 c p3
511.52 332.05 1.80 c p3
513.77 318.90 1.80 c p3
516.01 327.71 1.80 c p3
518.25 319.92 1.80 c p3
520.50 341.58 1.80 c p3
522.74 332.77 1.80 c p3
524.98 321.22 1.80 c p3
527.23 331.33 1.80 c p3
529.47 336.09 1.80 c p3
531.71 323.09 1.80 c p3
533.95 344.18 1.80 c p3
536.20 332.77 1.80 c p3
538.44 339.41 1.80 c p3
540.68 333.93 1.80 c p3
542.93 328.58 1.80 c p3
545.17 311.83 1.80 c p3
547.41 327.86 1.80 c p3
549.66 321.65 1.80 c p3
551.90 328.00 1.80 c p3
554.14 329.88 1.80 c p3
556.39 321.94 1.80 c p3
558.63 335.80 1.80 c p3
560.87 333.06 1.80 c p3
563.12 337.68 1.80 c p3
565.36 328.00 1.80 c p3
567.60 326.70 1.80 c p3
569.84 329.59 1.80 c p3
572.09 321.94 1.80 c p3
574.33 331.61 1.80 c p3
576.57 336.81 1.80 c p3
578.82 338.69 1.80 c p3
581.06 342.59 1.80 c p3
583.30 324.25 1.80 c p3
585.55 328.73 1.80 c p3
587.79 334.21 1.80 c p3
590.03 342.59 1.80 c p3
592.28 332.63 1.80 c p3
594.52 331.76 1.80 c p3
596.76 340.14 1.80 c p3
599.01 331.04 1.80 c p3
601.25 321.65 1.80 c p3
603.49 324.83 1.80 c p3
605.73 331.18 1.80 c p3
607.98 339.56 1.80 c p3
610.22 331.90 1.80 c p3
612.46 326.56 1.80 c p3
614.71 331.76 1.80 c p3
616.95 329.16 1.80 c p3
619.19 324.39 1.80 c p3
621.44 339.99 1.80 c p3
623.68 338.69 1.80 c p3
0.00 0.00 648.00 360.00 cl
0 0 0 srgb
0.75 setlinewidth
[] 0 setdash
1 setlinecap
1 setlinejoin
10.00 setmiterlimit
np
51.68 28.80 m
560.78 0 l
o
np
51.68 28.80 m
0 -7.20 l
o
np
163.84 28.80 m
0 -7.20 l
o
np
275.99 28.80 m
0 -7.20 l
o
np
388.15 28.80 m
0 -7.20 l
o
np
500.31 28.80 m
0 -7.20 l
o
np
612.46 28.80 m
0 -7.20 l
o
/Font1 findfont 12 s
51.68 2.88 (0) .5 0 t
163.84 2.88 (50) .5 0 t
275.99 2.88 (100) .5 0 t
388.15 2.88 (150) .5 0 t
500.31 2.88 (200) .5 0 t
612.46 2.88 (250) .5 0 t
np
28.80 41.01 m
0 288.87 l
o
np
28.80 41.01 m
-7.20 0 l
o
np
28.80 113.23 m
-7.20 0 l
o
np
28.80 185.45 m
-7.20 0 l
o
np
28.80 257.66 m
-7.20 0 l
o
np
28.80 329.88 m
-7.20 0 l
o
11.52 41.01 (0) .5 90 t
11.52 113.23 (500) .5 90 t
11.52 185.45 (1000) .5 90 t
11.52 257.66 (1500) .5 90 t
11.52 329.88 (2000) .5 90 t
np
28.80 28.80 m
617.76 0 l
0 329.76 l
-617.76 0 l
0 -329.76 l
o
0.00 0.00 648.00 360.00 cl
28.80 28.80 646.56 358.56 cl
0.8039 0 0 srgb
0.75 setlinewidth
[] 0 setdash
1 setlinecap
1 setlinejoin
10.00 setmiterlimit
np
28.80 329.88 m
617.76 0 l
o
ep
%%Trailer
%%Pages: 1
%%EOF
