%!PS-Adobe-3.0 EPSF-3.0
%%DocumentNeededResources: font Helvetica
%%+ font Helvetica-Bold
%%+ font Helvetica-Oblique
%%+ font Helvetica-BoldOblique
%%+ font Symbol
%%Title: R Graphics Output
%%Creator: R Software
%%Pages: (atend)
%%BoundingBox: 0 0 648 360
%%EndComments
%%BeginProlog
/bp  { gs sRGB gs } def
% begin .ps.prolog
/gs  { gsave } bind def
/gr  { grestore } bind def
/ep  { showpage gr gr } bind def
/m   { moveto } bind def
/l  { rlineto } bind def
/np  { newpath } bind def
/cp  { closepath } bind def
/f   { fill } bind def
/o   { stroke } bind def
/c   { newpath 0 360 arc } bind def
/r   { 4 2 roll moveto 1 copy 3 -1 roll exch 0 exch rlineto 0 rlineto -1 mul 0 exch rlineto closepath } bind def
/p1  { stroke } bind def
/p2  { gsave bg fill grestore newpath } bind def
/p3  { gsave bg fill grestore stroke } bind def
/p6  { gsave bg eofill grestore newpath } bind def
/p7  { gsave bg eofill grestore stroke } bind def
/t   { 5 -2 roll moveto gsave rotate
       1 index stringwidth pop
       mul neg 0 rmoveto show grestore } bind def
/ta  { 4 -2 roll moveto gsave rotate show } bind def
/tb  { 2 -1 roll 0 rmoveto show } bind def
/cl  { grestore gsave newpath 3 index 3 index moveto 1 index
       4 -1 roll lineto  exch 1 index lineto lineto
       closepath clip newpath } bind def
/rgb { setrgbcolor } bind def
/s   { scalefont setfont } bind def
% end   .ps.prolog
/sRGB { [ /CIEBasedABC
          << /DecodeLMN
               [ { dup 0.03928 le
                        {12.92321 div}
                        {0.055 add 1.055 div 2.4 exp }
                     ifelse
                 } bind dup dup
               ]
             /MatrixLMN [0.412457 0.212673 0.019334
                         0.357576 0.715152 0.119192
                         0.180437 0.072175 0.950301]
             /WhitePoint [0.9505 1.0 1.0890]
           >>
         ] setcolorspace } bind def
/srgb { setcolor } bind def
%%IncludeResource: font Helvetica
/Helvetica findfont
dup length dict begin
  {1 index /FID ne {def} {pop pop} ifelse} forall
  /Encoding ISOLatin1Encoding def
  currentdict
  end
/Font1 exch definefont pop
%%IncludeResource: font Helvetica-Bold
/Helvetica-Bold findfont
dup length dict begin
  {1 index /FID ne {def} {pop pop} ifelse} forall
  /Encoding ISOLatin1Encoding def
  currentdict
  end
/Font2 exch definefont pop
%%IncludeResource: font Helvetica-Oblique
/Helvetica-Oblique findfont
dup length dict begin
  {1 index /FID ne {def} {pop pop} ifelse} forall
  /Encoding ISOLatin1Encoding def
  currentdict
  end
/Font3 exch definefont pop
%%IncludeResource: font Helvetica-BoldOblique
/Helvetica-BoldOblique findfont
dup length dict begin
  {1 index /FID ne {def} {pop pop} ifelse} forall
  /Encoding ISOLatin1Encoding def
  currentdict
  end
/Font4 exch definefont pop
%%IncludeResource: font Symbol
/Symbol findfont
dup length dict begin
  {1 index /FID ne {def} {pop pop} ifelse} forall
  currentdict
  end
/Font5 exch definefont pop
%%EndProlog
%%Page: 1 1
bp
28.80 28.80 646.56 358.56 cl
/bg { 0 0 1 srgb } def
0 0 1 srgb
0.75 setlinewidth
[] 0 setdash
1 setlinecap
1 setlinejoin
10.00 setmiterlimit
51.68 338.01 1.80 c p3
53.92 330.39 1.80 c p3
56.17 328.66 1.80 c p3
58.41 329.96 1.80 c p3
60.65 317.60 1.80 c p3
62.90 330.25 1.80 c p3
65.14 330.53 1.80 c p3
67.38 331.68 1.80 c p3
69.63 333.55 1.80 c p3
71.87 332.83 1.80 c p3
74.11 325.65 1.80 c p3
76.35 326.08 1.80 c p3
78.60 329.67 1.80 c p3
80.84 324.21 1.80 c p3
83.08 334.56 1.80 c p3
85.33 331.68 1.80 c p3
87.57 320.90 1.80 c p3
89.81 325.21 1.80 c p3
92.06 328.81 1.80 c p3
94.30 328.52 1.80 c p3
96.54 321.91 1.80 c p3
98.79 319.61 1.80 c p3
101.03 320.47 1.80 c p3
103.27 323.06 1.80 c p3
105.52 322.91 1.80 c p3
107.76 319.32 1.80 c p3
110.00 335.57 1.80 c p3
112.24 336.43 1.80 c p3
114.49 330.25 1.80 c p3
116.73 329.81 1.80 c p3
118.97 324.06 1.80 c p3
121.22 335.85 1.80 c p3
123.46 328.66 1.80 c p3
125.70 324.50 1.80 c p3
127.95 329.67 1.80 c p3
130.19 332.55 1.80 c p3
132.43 328.81 1.80 c p3
134.68 327.51 1.80 c p3
136.92 342.90 1.80 c p3
139.16 328.38 1.80 c p3
141.41 319.90 1.80 c p3
143.65 343.18 1.80 c p3
145.89 330.10 1.80 c p3
148.13 323.35 1.80 c p3
150.38 333.55 1.80 c p3
152.62 326.08 1.80 c p3
154.86 334.27 1.80 c p3
157.11 322.63 1.80 c p3
159.35 316.88 1.80 c p3
161.59 309.26 1.80 c p3
163.84 326.22 1.80 c p3
166.08 327.37 1.80 c p3
168.32 322.05 1.80 c p3
170.57 321.19 1.80 c p3
172.81 337.58 1.80 c p3
175.05 328.52 1.80 c p3
177.30 336.57 1.80 c p3
179.54 327.66 1.80 c p3
181.78 331.40 1.80 c p3
184.03 317.60 1.80 c p3
186.27 329.96 1.80 c p3
188.51 327.66 1.80 c p3
190.75 324.50 1.80 c p3
193.00 333.70 1.80 c p3
195.24 327.66 1.80 c p3
197.48 322.20 1.80 c p3
199.73 318.03 1.80 c p3
201.97 323.20 1.80 c p3
204.21 322.63 1.80 c p3
206.46 329.53 1.80 c p3
208.70 327.51 1.80 c p3
210.94 322.20 1.80 c p3
213.19 321.48 1.80 c p3
215.43 326.65 1.80 c p3
217.67 339.45 1.80 c p3
219.92 323.63 1.80 c p3
222.16 328.81 1.80 c p3
224.40 326.36 1.80 c p3
226.64 336.14 1.80 c p3
228.89 325.50 1.80 c p3
231.13 331.54 1.80 c p3
233.37 326.65 1.80 c p3
235.62 322.20 1.80 c p3
237.86 325.36 1.80 c p3
240.10 337.00 1.80 c p3
242.35 336.57 1.80 c p3
244.59 315.87 1.80 c p3
246.83 321.05 1.80 c p3
249.08 333.84 1.80 c p3
251.32 334.56 1.80 c p3
253.56 316.73 1.80 c p3
255.81 325.07 1.80 c p3
258.05 338.15 1.80 c p3
260.29 323.49 1.80 c p3
262.53 339.45 1.80 c p3
264.78 333.12 1.80 c p3
267.02 326.65 1.80 c p3
269.26 323.06 1.80 c p3
271.51 333.98 1.80 c p3
273.75 332.55 1.80 c p3
275.99 324.78 1.80 c p3
278.24 325.79 1.80 c p3
280.48 321.76 1.80 c p3
282.72 337.43 1.80 c p3
284.97 326.80 1.80 c p3
287.21 316.16 1.80 c p3
289.45 335.57 1.80 c p3
291.70 331.83 1.80 c p3
293.94 325.65 1.80 c p3
296.18 336.43 1.80 c p3
298.43 330.82 1.80 c p3
300.67 329.81 1.80 c p3
302.91 329.81 1.80 c p3
305.15 334.42 1.80 c p3
307.40 326.08 1.80 c p3
309.64 330.68 1.80 c p3
311.88 319.61 1.80 c p3
314.13 321.76 1.80 c p3
316.37 317.31 1.80 c p3
318.61 318.46 1.80 c p3
320.86 326.36 1.80 c p3
323.10 325.50 1.80 c p3
325.34 332.55 1.80 c p3
327.59 336.72 1.80 c p3
329.83 329.53 1.80 c p3
332.07 331.40 1.80 c p3
334.32 327.66 1.80 c p3
336.56 319.61 1.80 c p3
338.80 333.98 1.80 c p3
341.04 323.63 1.80 c p3
343.29 316.59 1.80 c p3
345.53 324.35 1.80 c p3
347.77 326.51 1.80 c p3
350.02 328.81 1.80 c p3
352.26 332.12 1.80 c p3
354.50 333.12 1.80 c p3
356.75 328.66 1.80 c p3
358.99 331.97 1.80 c p3
361.23 326.22 1.80 c p3
363.48 322.20 1.80 c p3
365.72 326.80 1.80 c p3
367.96 323.63 1.80 c p3
370.21 328.81 1.80 c p3
372.45 331.83 1.80 c p3
374.69 334.42 1.80 c p3
376.93 335.28 1.80 c p3
379.18 340.74 1.80 c p3
381.42 337.15 1.80 c p3
383.66 329.81 1.80 c p3
385.91 325.07 1.80 c p3
388.15 328.95 1.80 c p3
390.39 337.29 1.80 c p3
392.64 336.86 1.80 c p3
394.88 316.88 1.80 c p3
397.12 319.61 1.80 c p3
399.37 332.69 1.80 c p3
401.61 328.81 1.80 c p3
403.85 334.70 1.80 c p3
406.10 336.14 1.80 c p3
408.34 319.61 1.80 c p3
410.58 327.51 1.80 c p3
412.83 333.12 1.80 c p3
415.07 330.53 1.80 c p3
417.31 320.90 1.80 c p3
419.55 328.09 1.80 c p3
421.80 326.80 1.80 c p3
424.04 330.96 1.80 c p3
426.28 334.27 1.80 c p3
428.53 330.39 1.80 c p3
430.77 341.89 1.80 c p3
433.01 326.51 1.80 c p3
435.26 329.53 1.80 c p3
437.50 324.50 1.80 c p3
439.74 330.10 1.80 c p3
441.99 321.05 1.80 c p3
444.23 330.68 1.80 c p3
446.47 332.69 1.80 c p3
448.72 323.63 1.80 c p3
450.96 327.66 1.80 c p3
453.20 327.23 1.80 c p3
455.44 324.35 1.80 c p3
457.69 333.12 1.80 c p3
459.93 329.96 1.80 c p3
462.17 325.21 1.80 c p3
464.42 335.85 1.80 c p3
466.66 327.23 1.80 c p3
468.90 336.00 1.80 c p3
471.15 337.43 1.80 c p3
473.39 328.52 1.80 c p3
475.63 317.16 1.80 c p3
477.88 335.71 1.80 c p3
480.12 314.00 1.80 c p3
482.36 346.35 1.80 c p3
484.61 328.23 1.80 c p3
486.85 331.25 1.80 c p3
489.09 332.98 1.80 c p3
491.33 318.17 1.80 c p3
493.58 326.51 1.80 c p3
495.82 340.31 1.80 c p3
498.06 336.00 1.80 c p3
500.31 328.81 1.80 c p3
502.55 321.62 1.80 c p3
504.79 324.93 1.80 c p3
507.04 334.27 1.80 c p3
509.28 305.95 1.80 c p3
511.52 331.97 1.80 c p3
513.77 322.48 1.80 c p3
516.01 333.12 1.80 c p3
518.25 335.85 1.80 c p3
520.50 332.12 1.80 c p3
522.74 326.36 1.80 c p3
524.98 330.82 1.80 c p3
527.23 326.65 1.80 c p3
529.47 334.70 1.80 c p3
531.71 328.52 1.80 c p3
533.95 327.95 1.80 c p3
536.20 317.45 1.80 c p3
538.44 325.79 1.80 c p3
540.68 318.31 1.80 c p3
542.93 314.00 1.80 c p3
545.17 318.46 1.80 c p3
547.41 319.32 1.80 c p3
549.66 344.05 1.80 c p3
551.90 325.79 1.80 c p3
554.14 329.67 1.80 c p3
556.39 323.49 1.80 c p3
558.63 325.93 1.80 c p3
560.87 339.73 1.80 c p3
563.12 328.23 1.80 c p3
565.36 332.55 1.80 c p3
567.60 337.15 1.80 c p3
569.84 328.38 1.80 c p3
572.09 329.53 1.80 c p3
574.33 342.75 1.80 c p3
576.57 325.21 1.80 c p3
578.82 321.76 1.80 c p3
581.06 329.53 1.80 c p3
583.30 333.84 1.80 c p3
585.55 339.59 1.80 c p3
587.79 331.11 1.80 c p3
590.03 334.56 1.80 c p3
592.28 331.25 1.80 c p3
594.52 326.51 1.80 c p3
596.76 332.55 1.80 c p3
599.01 336.86 1.80 c p3
601.25 328.52 1.80 c p3
603.49 334.85 1.80 c p3
605.73 335.28 1.80 c p3
607.98 334.56 1.80 c p3
610.22 330.39 1.80 c p3
612.46 319.18 1.80 c p3
614.71 313.71 1.80 c p3
616.95 327.37 1.80 c p3
619.19 340.60 1.80 c p3
621.44 333.55 1.80 c p3
623.68 338.01 1.80 c p3
0.00 0.00 648.00 360.00 cl
0 0 0 srgb
0.75 setlinewidth
[] 0 setdash
1 setlinecap
1 setlinejoin
10.00 setmiterlimit
np
51.68 28.80 m
560.78 0 l
o
np
51.68 28.80 m
0 -7.20 l
o
np
163.84 28.80 m
0 -7.20 l
o
np
275.99 28.80 m
0 -7.20 l
o
np
388.15 28.80 m
0 -7.20 l
o
np
500.31 28.80 m
0 -7.20 l
o
np
612.46 28.80 m
0 -7.20 l
o
/Font1 findfont 12 s
51.68 2.88 (0) .5 0 t
163.84 2.88 (50) .5 0 t
275.99 2.88 (100) .5 0 t
388.15 2.88 (150) .5 0 t
500.31 2.88 (200) .5 0 t
612.46 2.88 (250) .5 0 t
np
28.80 41.01 m
0 287.51 l
o
np
28.80 41.01 m
-7.20 0 l
o
np
28.80 112.89 m
-7.20 0 l
o
np
28.80 184.77 m
-7.20 0 l
o
np
28.80 256.64 m
-7.20 0 l
o
np
28.80 328.52 m
-7.20 0 l
o
11.52 41.01 (0) .5 90 t
11.52 112.89 (500) .5 90 t
11.52 184.77 (1000) .5 90 t
11.52 256.64 (1500) .5 90 t
11.52 328.52 (2000) .5 90 t
np
28.80 28.80 m
617.76 0 l
0 329.76 l
-617.76 0 l
0 -329.76 l
o
0.00 0.00 648.00 360.00 cl
28.80 28.80 646.56 358.56 cl
0.8039 0 0 srgb
0.75 setlinewidth
[] 0 setdash
1 setlinecap
1 setlinejoin
10.00 setmiterlimit
np
28.80 328.52 m
617.76 0 l
o
ep
%%Trailer
%%Pages: 1
%%EOF
