%!PS-Adobe-3.0 EPSF-3.0
%%DocumentNeededResources: font Helvetica
%%+ font Helvetica-Bold
%%+ font Helvetica-Oblique
%%+ font Helvetica-BoldOblique
%%+ font Symbol
%%Title: R Graphics Output
%%Creator: R Software
%%Pages: (atend)
%%BoundingBox: 0 0 648 360
%%EndComments
%%BeginProlog
/bp  { gs sRGB gs } def
% begin .ps.prolog
/gs  { gsave } bind def
/gr  { grestore } bind def
/ep  { showpage gr gr } bind def
/m   { moveto } bind def
/l  { rlineto } bind def
/np  { newpath } bind def
/cp  { closepath } bind def
/f   { fill } bind def
/o   { stroke } bind def
/c   { newpath 0 360 arc } bind def
/r   { 4 2 roll moveto 1 copy 3 -1 roll exch 0 exch rlineto 0 rlineto -1 mul 0 exch rlineto closepath } bind def
/p1  { stroke } bind def
/p2  { gsave bg fill grestore newpath } bind def
/p3  { gsave bg fill grestore stroke } bind def
/p6  { gsave bg eofill grestore newpath } bind def
/p7  { gsave bg eofill grestore stroke } bind def
/t   { 5 -2 roll moveto gsave rotate
       1 index stringwidth pop
       mul neg 0 rmoveto show grestore } bind def
/ta  { 4 -2 roll moveto gsave rotate show } bind def
/tb  { 2 -1 roll 0 rmoveto show } bind def
/cl  { grestore gsave newpath 3 index 3 index moveto 1 index
       4 -1 roll lineto  exch 1 index lineto lineto
       closepath clip newpath } bind def
/rgb { setrgbcolor } bind def
/s   { scalefont setfont } bind def
% end   .ps.prolog
/sRGB { [ /CIEBasedABC
          << /DecodeLMN
               [ { dup 0.03928 le
                        {12.92321 div}
                        {0.055 add 1.055 div 2.4 exp }
                     ifelse
                 } bind dup dup
               ]
             /MatrixLMN [0.412457 0.212673 0.019334
                         0.357576 0.715152 0.119192
                         0.180437 0.072175 0.950301]
             /WhitePoint [0.9505 1.0 1.0890]
           >>
         ] setcolorspace } bind def
/srgb { setcolor } bind def
%%IncludeResource: font Helvetica
/Helvetica findfont
dup length dict begin
  {1 index /FID ne {def} {pop pop} ifelse} forall
  /Encoding ISOLatin1Encoding def
  currentdict
  end
/Font1 exch definefont pop
%%IncludeResource: font Helvetica-Bold
/Helvetica-Bold findfont
dup length dict begin
  {1 index /FID ne {def} {pop pop} ifelse} forall
  /Encoding ISOLatin1Encoding def
  currentdict
  end
/Font2 exch definefont pop
%%IncludeResource: font Helvetica-Oblique
/Helvetica-Oblique findfont
dup length dict begin
  {1 index /FID ne {def} {pop pop} ifelse} forall
  /Encoding ISOLatin1Encoding def
  currentdict
  end
/Font3 exch definefont pop
%%IncludeResource: font Helvetica-BoldOblique
/Helvetica-BoldOblique findfont
dup length dict begin
  {1 index /FID ne {def} {pop pop} ifelse} forall
  /Encoding ISOLatin1Encoding def
  currentdict
  end
/Font4 exch definefont pop
%%IncludeResource: font Symbol
/Symbol findfont
dup length dict begin
  {1 index /FID ne {def} {pop pop} ifelse} forall
  currentdict
  end
/Font5 exch definefont pop
%%EndProlog
%%Page: 1 1
bp
28.80 28.80 646.56 358.56 cl
/bg { 0 0 1 srgb } def
0 0 1 srgb
0.75 setlinewidth
[] 0 setdash
1 setlinecap
1 setlinejoin
10.00 setmiterlimit
51.68 320.13 1.80 c p3
53.92 330.01 1.80 c p3
56.17 325.43 1.80 c p3
58.41 331.88 1.80 c p3
60.65 326.72 1.80 c p3
62.90 325.86 1.80 c p3
65.14 329.01 1.80 c p3
67.38 324.85 1.80 c p3
69.63 336.89 1.80 c p3
71.87 316.40 1.80 c p3
74.11 332.88 1.80 c p3
76.35 318.55 1.80 c p3
78.60 328.44 1.80 c p3
80.84 343.34 1.80 c p3
83.08 333.02 1.80 c p3
85.33 324.14 1.80 c p3
87.57 335.31 1.80 c p3
89.81 329.73 1.80 c p3
92.06 328.15 1.80 c p3
94.30 324.42 1.80 c p3
96.54 323.85 1.80 c p3
98.79 337.03 1.80 c p3
101.03 326.14 1.80 c p3
103.27 325.14 1.80 c p3
105.52 329.01 1.80 c p3
107.76 333.02 1.80 c p3
110.00 325.86 1.80 c p3
112.24 324.28 1.80 c p3
114.49 321.42 1.80 c p3
116.73 321.85 1.80 c p3
118.97 340.90 1.80 c p3
121.22 323.71 1.80 c p3
123.46 320.13 1.80 c p3
125.70 321.70 1.80 c p3
127.95 328.29 1.80 c p3
130.19 320.13 1.80 c p3
132.43 320.84 1.80 c p3
134.68 325.28 1.80 c p3
136.92 324.28 1.80 c p3
139.16 338.47 1.80 c p3
141.41 330.59 1.80 c p3
143.65 331.45 1.80 c p3
145.89 325.71 1.80 c p3
148.13 338.32 1.80 c p3
150.38 330.16 1.80 c p3
152.62 331.16 1.80 c p3
154.86 320.56 1.80 c p3
157.11 325.57 1.80 c p3
159.35 329.58 1.80 c p3
161.59 325.71 1.80 c p3
163.84 331.73 1.80 c p3
166.08 330.01 1.80 c p3
168.32 332.02 1.80 c p3
170.57 325.00 1.80 c p3
172.81 329.30 1.80 c p3
175.05 336.03 1.80 c p3
177.30 323.56 1.80 c p3
179.54 326.86 1.80 c p3
181.78 328.15 1.80 c p3
184.03 338.47 1.80 c p3
186.27 336.03 1.80 c p3
188.51 319.84 1.80 c p3
190.75 322.85 1.80 c p3
193.00 328.15 1.80 c p3
195.24 319.84 1.80 c p3
197.48 346.35 1.80 c p3
199.73 325.14 1.80 c p3
201.97 326.14 1.80 c p3
204.21 331.59 1.80 c p3
206.46 312.68 1.80 c p3
208.70 337.03 1.80 c p3
210.94 318.41 1.80 c p3
213.19 320.27 1.80 c p3
215.43 333.88 1.80 c p3
217.67 319.27 1.80 c p3
219.92 324.85 1.80 c p3
222.16 333.02 1.80 c p3
224.40 319.70 1.80 c p3
226.64 333.59 1.80 c p3
228.89 334.17 1.80 c p3
231.13 325.57 1.80 c p3
233.37 326.86 1.80 c p3
235.62 332.16 1.80 c p3
237.86 326.43 1.80 c p3
240.10 329.44 1.80 c p3
242.35 333.02 1.80 c p3
244.59 318.84 1.80 c p3
246.83 333.02 1.80 c p3
249.08 336.89 1.80 c p3
251.32 329.44 1.80 c p3
253.56 324.28 1.80 c p3
255.81 322.28 1.80 c p3
258.05 328.44 1.80 c p3
260.29 325.71 1.80 c p3
262.53 322.42 1.80 c p3
264.78 337.32 1.80 c p3
267.02 322.28 1.80 c p3
269.26 311.53 1.80 c p3
271.51 325.14 1.80 c p3
273.75 330.16 1.80 c p3
275.99 336.46 1.80 c p3
278.24 321.70 1.80 c p3
280.48 321.56 1.80 c p3
282.72 329.30 1.80 c p3
284.97 333.74 1.80 c p3
287.21 333.74 1.80 c p3
289.45 326.00 1.80 c p3
291.70 316.69 1.80 c p3
293.94 327.29 1.80 c p3
296.18 324.28 1.80 c p3
298.43 326.29 1.80 c p3
300.67 337.03 1.80 c p3
302.91 324.57 1.80 c p3
305.15 323.56 1.80 c p3
307.40 323.85 1.80 c p3
309.64 320.56 1.80 c p3
311.88 328.72 1.80 c p3
314.13 327.29 1.80 c p3
316.37 320.41 1.80 c p3
318.61 331.16 1.80 c p3
320.86 329.73 1.80 c p3
323.10 332.31 1.80 c p3
325.34 344.63 1.80 c p3
327.59 326.43 1.80 c p3
329.83 330.59 1.80 c p3
332.07 322.28 1.80 c p3
334.32 333.59 1.80 c p3
336.56 336.46 1.80 c p3
338.80 326.57 1.80 c p3
341.04 313.39 1.80 c p3
343.29 339.61 1.80 c p3
345.53 333.16 1.80 c p3
347.77 335.46 1.80 c p3
350.02 324.85 1.80 c p3
352.26 323.56 1.80 c p3
354.50 332.02 1.80 c p3
356.75 333.59 1.80 c p3
358.99 327.86 1.80 c p3
361.23 330.59 1.80 c p3
363.48 325.71 1.80 c p3
365.72 331.73 1.80 c p3
367.96 331.30 1.80 c p3
370.21 334.31 1.80 c p3
372.45 324.57 1.80 c p3
374.69 324.28 1.80 c p3
376.93 329.73 1.80 c p3
379.18 323.56 1.80 c p3
381.42 336.17 1.80 c p3
383.66 321.70 1.80 c p3
385.91 328.44 1.80 c p3
388.15 310.81 1.80 c p3
390.39 331.73 1.80 c p3
392.64 331.59 1.80 c p3
394.88 337.89 1.80 c p3
397.12 330.73 1.80 c p3
399.37 329.01 1.80 c p3
401.61 321.27 1.80 c p3
403.85 324.85 1.80 c p3
406.10 321.70 1.80 c p3
408.34 330.16 1.80 c p3
410.58 309.67 1.80 c p3
412.83 334.74 1.80 c p3
415.07 331.45 1.80 c p3
417.31 336.32 1.80 c p3
419.55 324.85 1.80 c p3
421.80 326.00 1.80 c p3
424.04 330.73 1.80 c p3
426.28 328.44 1.80 c p3
428.53 323.56 1.80 c p3
430.77 320.99 1.80 c p3
433.01 335.60 1.80 c p3
435.26 336.46 1.80 c p3
437.50 325.71 1.80 c p3
439.74 323.28 1.80 c p3
441.99 318.84 1.80 c p3
444.23 328.58 1.80 c p3
446.47 336.46 1.80 c p3
448.72 322.99 1.80 c p3
450.96 327.15 1.80 c p3
453.20 318.26 1.80 c p3
455.44 332.88 1.80 c p3
457.69 326.86 1.80 c p3
459.93 328.58 1.80 c p3
462.17 331.45 1.80 c p3
464.42 316.69 1.80 c p3
466.66 325.43 1.80 c p3
468.90 315.68 1.80 c p3
471.15 333.88 1.80 c p3
473.39 318.98 1.80 c p3
475.63 318.98 1.80 c p3
477.88 325.57 1.80 c p3
480.12 321.42 1.80 c p3
482.36 323.71 1.80 c p3
484.61 325.00 1.80 c p3
486.85 325.86 1.80 c p3
489.09 330.73 1.80 c p3
491.33 328.44 1.80 c p3
493.58 332.45 1.80 c p3
495.82 323.71 1.80 c p3
498.06 323.99 1.80 c p3
500.31 333.16 1.80 c p3
502.55 330.16 1.80 c p3
504.79 330.30 1.80 c p3
507.04 328.87 1.80 c p3
509.28 329.01 1.80 c p3
511.52 335.31 1.80 c p3
513.77 326.57 1.80 c p3
516.01 326.14 1.80 c p3
518.25 321.70 1.80 c p3
520.50 327.58 1.80 c p3
522.74 336.46 1.80 c p3
524.98 320.70 1.80 c p3
527.23 326.00 1.80 c p3
529.47 329.15 1.80 c p3
531.71 324.42 1.80 c p3
533.95 326.14 1.80 c p3
536.20 324.28 1.80 c p3
538.44 325.71 1.80 c p3
540.68 329.01 1.80 c p3
542.93 329.15 1.80 c p3
545.17 326.14 1.80 c p3
547.41 338.61 1.80 c p3
549.66 327.58 1.80 c p3
551.90 334.45 1.80 c p3
554.14 330.73 1.80 c p3
556.39 326.29 1.80 c p3
558.63 332.16 1.80 c p3
560.87 338.04 1.80 c p3
563.12 329.15 1.80 c p3
565.36 328.01 1.80 c p3
567.60 334.74 1.80 c p3
569.84 320.84 1.80 c p3
572.09 326.29 1.80 c p3
574.33 330.73 1.80 c p3
576.57 339.90 1.80 c p3
578.82 330.16 1.80 c p3
581.06 343.62 1.80 c p3
583.30 321.56 1.80 c p3
585.55 316.26 1.80 c p3
587.79 319.70 1.80 c p3
590.03 321.42 1.80 c p3
592.28 323.42 1.80 c p3
594.52 334.31 1.80 c p3
596.76 325.14 1.80 c p3
599.01 328.44 1.80 c p3
601.25 334.31 1.80 c p3
603.49 317.40 1.80 c p3
605.73 321.13 1.80 c p3
607.98 329.73 1.80 c p3
610.22 319.70 1.80 c p3
612.46 323.85 1.80 c p3
614.71 322.85 1.80 c p3
616.95 322.71 1.80 c p3
619.19 326.86 1.80 c p3
621.44 319.84 1.80 c p3
623.68 320.84 1.80 c p3
0.00 0.00 648.00 360.00 cl
0 0 0 srgb
0.75 setlinewidth
[] 0 setdash
1 setlinecap
1 setlinejoin
10.00 setmiterlimit
np
51.68 28.80 m
560.78 0 l
o
np
51.68 28.80 m
0 -7.20 l
o
np
163.84 28.80 m
0 -7.20 l
o
np
275.99 28.80 m
0 -7.20 l
o
np
388.15 28.80 m
0 -7.20 l
o
np
500.31 28.80 m
0 -7.20 l
o
np
612.46 28.80 m
0 -7.20 l
o
/Font1 findfont 12 s
51.68 2.88 (0) .5 0 t
163.84 2.88 (50) .5 0 t
275.99 2.88 (100) .5 0 t
388.15 2.88 (150) .5 0 t
500.31 2.88 (200) .5 0 t
612.46 2.88 (250) .5 0 t
np
28.80 41.01 m
0 286.57 l
o
np
28.80 41.01 m
-7.20 0 l
o
np
28.80 112.65 m
-7.20 0 l
o
np
28.80 184.30 m
-7.20 0 l
o
np
28.80 255.94 m
-7.20 0 l
o
np
28.80 327.58 m
-7.20 0 l
o
11.52 41.01 (0) .5 90 t
11.52 112.65 (500) .5 90 t
11.52 184.30 (1000) .5 90 t
11.52 255.94 (1500) .5 90 t
11.52 327.58 (2000) .5 90 t
np
28.80 28.80 m
617.76 0 l
0 329.76 l
-617.76 0 l
0 -329.76 l
o
0.00 0.00 648.00 360.00 cl
28.80 28.80 646.56 358.56 cl
0.8039 0 0 srgb
0.75 setlinewidth
[] 0 setdash
1 setlinecap
1 setlinejoin
10.00 setmiterlimit
np
28.80 327.58 m
617.76 0 l
o
ep
%%Trailer
%%Pages: 1
%%EOF
