%!PS-Adobe-3.0 EPSF-3.0
%%DocumentNeededResources: font Helvetica
%%+ font Helvetica-Bold
%%+ font Helvetica-Oblique
%%+ font Helvetica-BoldOblique
%%+ font Symbol
%%Title: R Graphics Output
%%Creator: R Software
%%Pages: (atend)
%%BoundingBox: 0 0 648 360
%%EndComments
%%BeginProlog
/bp  { gs sRGB gs } def
% begin .ps.prolog
/gs  { gsave } bind def
/gr  { grestore } bind def
/ep  { showpage gr gr } bind def
/m   { moveto } bind def
/l  { rlineto } bind def
/np  { newpath } bind def
/cp  { closepath } bind def
/f   { fill } bind def
/o   { stroke } bind def
/c   { newpath 0 360 arc } bind def
/r   { 4 2 roll moveto 1 copy 3 -1 roll exch 0 exch rlineto 0 rlineto -1 mul 0 exch rlineto closepath } bind def
/p1  { stroke } bind def
/p2  { gsave bg fill grestore newpath } bind def
/p3  { gsave bg fill grestore stroke } bind def
/p6  { gsave bg eofill grestore newpath } bind def
/p7  { gsave bg eofill grestore stroke } bind def
/t   { 5 -2 roll moveto gsave rotate
       1 index stringwidth pop
       mul neg 0 rmoveto show grestore } bind def
/ta  { 4 -2 roll moveto gsave rotate show } bind def
/tb  { 2 -1 roll 0 rmoveto show } bind def
/cl  { grestore gsave newpath 3 index 3 index moveto 1 index
       4 -1 roll lineto  exch 1 index lineto lineto
       closepath clip newpath } bind def
/rgb { setrgbcolor } bind def
/s   { scalefont setfont } bind def
% end   .ps.prolog
/sRGB { [ /CIEBasedABC
          << /DecodeLMN
               [ { dup 0.03928 le
                        {12.92321 div}
                        {0.055 add 1.055 div 2.4 exp }
                     ifelse
                 } bind dup dup
               ]
             /MatrixLMN [0.412457 0.212673 0.019334
                         0.357576 0.715152 0.119192
                         0.180437 0.072175 0.950301]
             /WhitePoint [0.9505 1.0 1.0890]
           >>
         ] setcolorspace } bind def
/srgb { setcolor } bind def
%%IncludeResource: font Helvetica
/Helvetica findfont
dup length dict begin
  {1 index /FID ne {def} {pop pop} ifelse} forall
  /Encoding ISOLatin1Encoding def
  currentdict
  end
/Font1 exch definefont pop
%%IncludeResource: font Helvetica-Bold
/Helvetica-Bold findfont
dup length dict begin
  {1 index /FID ne {def} {pop pop} ifelse} forall
  /Encoding ISOLatin1Encoding def
  currentdict
  end
/Font2 exch definefont pop
%%IncludeResource: font Helvetica-Oblique
/Helvetica-Oblique findfont
dup length dict begin
  {1 index /FID ne {def} {pop pop} ifelse} forall
  /Encoding ISOLatin1Encoding def
  currentdict
  end
/Font3 exch definefont pop
%%IncludeResource: font Helvetica-BoldOblique
/Helvetica-BoldOblique findfont
dup length dict begin
  {1 index /FID ne {def} {pop pop} ifelse} forall
  /Encoding ISOLatin1Encoding def
  currentdict
  end
/Font4 exch definefont pop
%%IncludeResource: font Symbol
/Symbol findfont
dup length dict begin
  {1 index /FID ne {def} {pop pop} ifelse} forall
  currentdict
  end
/Font5 exch definefont pop
%%EndProlog
%%Page: 1 1
bp
28.80 28.80 646.56 358.56 cl
/bg { 0 0 1 srgb } def
0 0 1 srgb
0.75 setlinewidth
[] 0 setdash
1 setlinecap
1 setlinejoin
10.00 setmiterlimit
51.68 329.38 1.80 c p3
53.92 325.20 1.80 c p3
56.17 328.23 1.80 c p3
58.41 332.40 1.80 c p3
60.65 325.64 1.80 c p3
62.90 328.66 1.80 c p3
65.14 322.62 1.80 c p3
67.38 331.68 1.80 c p3
69.63 324.20 1.80 c p3
71.87 331.68 1.80 c p3
74.11 329.52 1.80 c p3
76.35 323.62 1.80 c p3
78.60 334.27 1.80 c p3
80.84 330.96 1.80 c p3
83.08 325.78 1.80 c p3
85.33 343.61 1.80 c p3
87.57 323.19 1.80 c p3
89.81 314.13 1.80 c p3
92.06 320.75 1.80 c p3
94.30 321.18 1.80 c p3
96.54 328.23 1.80 c p3
98.79 335.27 1.80 c p3
101.03 337.29 1.80 c p3
103.27 334.12 1.80 c p3
105.52 336.42 1.80 c p3
107.76 329.66 1.80 c p3
110.00 335.27 1.80 c p3
112.24 333.40 1.80 c p3
114.49 328.51 1.80 c p3
116.73 332.40 1.80 c p3
118.97 324.20 1.80 c p3
121.22 333.55 1.80 c p3
123.46 330.09 1.80 c p3
125.70 325.49 1.80 c p3
127.95 323.62 1.80 c p3
130.19 324.05 1.80 c p3
132.43 337.14 1.80 c p3
134.68 332.11 1.80 c p3
136.92 337.14 1.80 c p3
139.16 330.09 1.80 c p3
141.41 326.21 1.80 c p3
143.65 331.68 1.80 c p3
145.89 330.53 1.80 c p3
148.13 326.07 1.80 c p3
150.38 338.29 1.80 c p3
152.62 327.22 1.80 c p3
154.86 325.92 1.80 c p3
157.11 335.13 1.80 c p3
159.35 319.88 1.80 c p3
161.59 320.75 1.80 c p3
163.84 340.16 1.80 c p3
166.08 327.65 1.80 c p3
168.32 329.81 1.80 c p3
170.57 323.91 1.80 c p3
172.81 334.84 1.80 c p3
175.05 328.37 1.80 c p3
177.30 335.70 1.80 c p3
179.54 335.42 1.80 c p3
181.78 326.50 1.80 c p3
184.03 335.27 1.80 c p3
186.27 342.46 1.80 c p3
188.51 332.11 1.80 c p3
190.75 329.09 1.80 c p3
193.00 315.57 1.80 c p3
195.24 324.63 1.80 c p3
197.48 322.47 1.80 c p3
199.73 327.07 1.80 c p3
201.97 324.05 1.80 c p3
204.21 320.17 1.80 c p3
206.46 328.08 1.80 c p3
208.70 332.11 1.80 c p3
210.94 324.20 1.80 c p3
213.19 325.49 1.80 c p3
215.43 329.52 1.80 c p3
217.67 334.55 1.80 c p3
219.92 324.92 1.80 c p3
222.16 322.47 1.80 c p3
224.40 324.49 1.80 c p3
226.64 338.72 1.80 c p3
228.89 323.48 1.80 c p3
231.13 319.74 1.80 c p3
233.37 329.09 1.80 c p3
235.62 329.66 1.80 c p3
237.86 326.21 1.80 c p3
240.10 325.49 1.80 c p3
242.35 340.31 1.80 c p3
244.59 320.89 1.80 c p3
246.83 332.54 1.80 c p3
249.08 319.60 1.80 c p3
251.32 335.99 1.80 c p3
253.56 317.01 1.80 c p3
255.81 320.89 1.80 c p3
258.05 334.84 1.80 c p3
260.29 329.09 1.80 c p3
262.53 333.12 1.80 c p3
264.78 322.47 1.80 c p3
267.02 327.22 1.80 c p3
269.26 337.86 1.80 c p3
271.51 330.24 1.80 c p3
273.75 329.52 1.80 c p3
275.99 332.68 1.80 c p3
278.24 332.83 1.80 c p3
280.48 325.49 1.80 c p3
282.72 339.59 1.80 c p3
284.97 326.64 1.80 c p3
287.21 338.87 1.80 c p3
289.45 321.03 1.80 c p3
291.70 324.20 1.80 c p3
293.94 327.51 1.80 c p3
296.18 336.14 1.80 c p3
298.43 335.42 1.80 c p3
300.67 327.65 1.80 c p3
302.91 325.20 1.80 c p3
305.15 328.23 1.80 c p3
307.40 317.15 1.80 c p3
309.64 327.79 1.80 c p3
311.88 331.82 1.80 c p3
314.13 322.04 1.80 c p3
316.37 335.42 1.80 c p3
318.61 322.18 1.80 c p3
320.86 320.03 1.80 c p3
323.10 326.21 1.80 c p3
325.34 324.77 1.80 c p3
327.59 335.42 1.80 c p3
329.83 332.97 1.80 c p3
332.07 326.07 1.80 c p3
334.32 325.78 1.80 c p3
336.56 319.88 1.80 c p3
338.80 332.97 1.80 c p3
341.04 331.53 1.80 c p3
343.29 330.38 1.80 c p3
345.53 325.20 1.80 c p3
347.77 332.11 1.80 c p3
350.02 325.78 1.80 c p3
352.26 346.35 1.80 c p3
354.50 317.29 1.80 c p3
356.75 327.65 1.80 c p3
358.99 332.54 1.80 c p3
361.23 334.98 1.80 c p3
363.48 327.65 1.80 c p3
365.72 324.92 1.80 c p3
367.96 334.41 1.80 c p3
370.21 329.95 1.80 c p3
372.45 331.68 1.80 c p3
374.69 332.97 1.80 c p3
376.93 334.84 1.80 c p3
379.18 326.36 1.80 c p3
381.42 333.55 1.80 c p3
383.66 335.99 1.80 c p3
385.91 326.36 1.80 c p3
388.15 320.75 1.80 c p3
390.39 328.23 1.80 c p3
392.64 326.36 1.80 c p3
394.88 327.65 1.80 c p3
397.12 317.44 1.80 c p3
399.37 332.25 1.80 c p3
401.61 329.38 1.80 c p3
403.85 339.73 1.80 c p3
406.10 325.78 1.80 c p3
408.34 324.63 1.80 c p3
410.58 327.94 1.80 c p3
412.83 338.15 1.80 c p3
415.07 324.34 1.80 c p3
417.31 332.25 1.80 c p3
419.55 326.50 1.80 c p3
421.80 323.91 1.80 c p3
424.04 337.72 1.80 c p3
426.28 319.31 1.80 c p3
428.53 340.45 1.80 c p3
430.77 326.64 1.80 c p3
433.01 334.55 1.80 c p3
435.26 327.36 1.80 c p3
437.50 317.87 1.80 c p3
439.74 325.64 1.80 c p3
441.99 325.06 1.80 c p3
444.23 327.22 1.80 c p3
446.47 326.93 1.80 c p3
448.72 313.70 1.80 c p3
450.96 329.52 1.80 c p3
453.20 333.83 1.80 c p3
455.44 324.05 1.80 c p3
457.69 326.07 1.80 c p3
459.93 332.11 1.80 c p3
462.17 339.30 1.80 c p3
464.42 329.66 1.80 c p3
466.66 322.33 1.80 c p3
468.90 333.69 1.80 c p3
471.15 330.24 1.80 c p3
473.39 335.56 1.80 c p3
475.63 317.87 1.80 c p3
477.88 328.23 1.80 c p3
480.12 324.20 1.80 c p3
482.36 329.09 1.80 c p3
484.61 327.94 1.80 c p3
486.85 333.98 1.80 c p3
489.09 329.52 1.80 c p3
491.33 329.52 1.80 c p3
493.58 333.26 1.80 c p3
495.82 325.78 1.80 c p3
498.06 328.08 1.80 c p3
500.31 327.51 1.80 c p3
502.55 337.14 1.80 c p3
504.79 325.20 1.80 c p3
507.04 335.56 1.80 c p3
509.28 331.82 1.80 c p3
511.52 335.27 1.80 c p3
513.77 322.90 1.80 c p3
516.01 327.79 1.80 c p3
518.25 325.35 1.80 c p3
520.50 319.74 1.80 c p3
522.74 333.26 1.80 c p3
524.98 325.78 1.80 c p3
527.23 334.12 1.80 c p3
529.47 323.91 1.80 c p3
531.71 317.29 1.80 c p3
533.95 334.70 1.80 c p3
536.20 325.06 1.80 c p3
538.44 319.02 1.80 c p3
540.68 321.47 1.80 c p3
542.93 334.12 1.80 c p3
545.17 335.42 1.80 c p3
547.41 339.44 1.80 c p3
549.66 333.69 1.80 c p3
551.90 330.38 1.80 c p3
554.14 330.67 1.80 c p3
556.39 326.64 1.80 c p3
558.63 324.34 1.80 c p3
560.87 327.79 1.80 c p3
563.12 340.88 1.80 c p3
565.36 333.55 1.80 c p3
567.60 323.62 1.80 c p3
569.84 330.38 1.80 c p3
572.09 326.07 1.80 c p3
574.33 331.39 1.80 c p3
576.57 330.67 1.80 c p3
578.82 324.63 1.80 c p3
581.06 324.63 1.80 c p3
583.30 327.65 1.80 c p3
585.55 327.07 1.80 c p3
587.79 325.20 1.80 c p3
590.03 333.26 1.80 c p3
592.28 330.53 1.80 c p3
594.52 324.05 1.80 c p3
596.76 330.24 1.80 c p3
599.01 320.31 1.80 c p3
601.25 329.09 1.80 c p3
603.49 322.18 1.80 c p3
605.73 323.05 1.80 c p3
607.98 336.14 1.80 c p3
610.22 335.99 1.80 c p3
612.46 320.46 1.80 c p3
614.71 318.73 1.80 c p3
616.95 323.34 1.80 c p3
619.19 334.41 1.80 c p3
621.44 330.09 1.80 c p3
623.68 315.57 1.80 c p3
0.00 0.00 648.00 360.00 cl
0 0 0 srgb
0.75 setlinewidth
[] 0 setdash
1 setlinecap
1 setlinejoin
10.00 setmiterlimit
np
51.68 28.80 m
560.78 0 l
o
np
51.68 28.80 m
0 -7.20 l
o
np
163.84 28.80 m
0 -7.20 l
o
np
275.99 28.80 m
0 -7.20 l
o
np
388.15 28.80 m
0 -7.20 l
o
np
500.31 28.80 m
0 -7.20 l
o
np
612.46 28.80 m
0 -7.20 l
o
/Font1 findfont 12 s
51.68 2.88 (0) .5 0 t
163.84 2.88 (50) .5 0 t
275.99 2.88 (100) .5 0 t
388.15 2.88 (150) .5 0 t
500.31 2.88 (200) .5 0 t
612.46 2.88 (250) .5 0 t
np
28.80 41.01 m
0 287.65 l
o
np
28.80 41.01 m
-7.20 0 l
o
np
28.80 112.92 m
-7.20 0 l
o
np
28.80 184.83 m
-7.20 0 l
o
np
28.80 256.75 m
-7.20 0 l
o
np
28.80 328.66 m
-7.20 0 l
o
11.52 41.01 (0) .5 90 t
11.52 112.92 (500) .5 90 t
11.52 184.83 (1000) .5 90 t
11.52 256.75 (1500) .5 90 t
11.52 328.66 (2000) .5 90 t
np
28.80 28.80 m
617.76 0 l
0 329.76 l
-617.76 0 l
0 -329.76 l
o
0.00 0.00 648.00 360.00 cl
28.80 28.80 646.56 358.56 cl
0.8039 0 0 srgb
0.75 setlinewidth
[] 0 setdash
1 setlinecap
1 setlinejoin
10.00 setmiterlimit
np
28.80 328.66 m
617.76 0 l
o
ep
%%Trailer
%%Pages: 1
%%EOF
