%!PS-Adobe-3.0 EPSF-3.0
%%DocumentNeededResources: font Helvetica
%%+ font Helvetica-Bold
%%+ font Helvetica-Oblique
%%+ font Helvetica-BoldOblique
%%+ font Symbol
%%Title: R Graphics Output
%%Creator: R Software
%%Pages: (atend)
%%BoundingBox: 0 0 648 360
%%EndComments
%%BeginProlog
/bp  { gs sRGB gs } def
% begin .ps.prolog
/gs  { gsave } bind def
/gr  { grestore } bind def
/ep  { showpage gr gr } bind def
/m   { moveto } bind def
/l  { rlineto } bind def
/np  { newpath } bind def
/cp  { closepath } bind def
/f   { fill } bind def
/o   { stroke } bind def
/c   { newpath 0 360 arc } bind def
/r   { 4 2 roll moveto 1 copy 3 -1 roll exch 0 exch rlineto 0 rlineto -1 mul 0 exch rlineto closepath } bind def
/p1  { stroke } bind def
/p2  { gsave bg fill grestore newpath } bind def
/p3  { gsave bg fill grestore stroke } bind def
/p6  { gsave bg eofill grestore newpath } bind def
/p7  { gsave bg eofill grestore stroke } bind def
/t   { 5 -2 roll moveto gsave rotate
       1 index stringwidth pop
       mul neg 0 rmoveto show grestore } bind def
/ta  { 4 -2 roll moveto gsave rotate show } bind def
/tb  { 2 -1 roll 0 rmoveto show } bind def
/cl  { grestore gsave newpath 3 index 3 index moveto 1 index
       4 -1 roll lineto  exch 1 index lineto lineto
       closepath clip newpath } bind def
/rgb { setrgbcolor } bind def
/s   { scalefont setfont } bind def
% end   .ps.prolog
/sRGB { [ /CIEBasedABC
          << /DecodeLMN
               [ { dup 0.03928 le
                        {12.92321 div}
                        {0.055 add 1.055 div 2.4 exp }
                     ifelse
                 } bind dup dup
               ]
             /MatrixLMN [0.412457 0.212673 0.019334
                         0.357576 0.715152 0.119192
                         0.180437 0.072175 0.950301]
             /WhitePoint [0.9505 1.0 1.0890]
           >>
         ] setcolorspace } bind def
/srgb { setcolor } bind def
%%IncludeResource: font Helvetica
/Helvetica findfont
dup length dict begin
  {1 index /FID ne {def} {pop pop} ifelse} forall
  /Encoding ISOLatin1Encoding def
  currentdict
  end
/Font1 exch definefont pop
%%IncludeResource: font Helvetica-Bold
/Helvetica-Bold findfont
dup length dict begin
  {1 index /FID ne {def} {pop pop} ifelse} forall
  /Encoding ISOLatin1Encoding def
  currentdict
  end
/Font2 exch definefont pop
%%IncludeResource: font Helvetica-Oblique
/Helvetica-Oblique findfont
dup length dict begin
  {1 index /FID ne {def} {pop pop} ifelse} forall
  /Encoding ISOLatin1Encoding def
  currentdict
  end
/Font3 exch definefont pop
%%IncludeResource: font Helvetica-BoldOblique
/Helvetica-BoldOblique findfont
dup length dict begin
  {1 index /FID ne {def} {pop pop} ifelse} forall
  /Encoding ISOLatin1Encoding def
  currentdict
  end
/Font4 exch definefont pop
%%IncludeResource: font Symbol
/Symbol findfont
dup length dict begin
  {1 index /FID ne {def} {pop pop} ifelse} forall
  currentdict
  end
/Font5 exch definefont pop
%%EndProlog
%%Page: 1 1
bp
28.80 28.80 646.56 358.56 cl
/bg { 0 0 1 srgb } def
0 0 1 srgb
0.75 setlinewidth
[] 0 setdash
1 setlinecap
1 setlinejoin
10.00 setmiterlimit
51.68 314.91 1.80 c p3
53.92 321.49 1.80 c p3
56.17 322.20 1.80 c p3
58.41 319.63 1.80 c p3
60.65 326.06 1.80 c p3
62.90 321.34 1.80 c p3
65.14 317.91 1.80 c p3
67.38 318.49 1.80 c p3
69.63 328.63 1.80 c p3
71.87 326.77 1.80 c p3
74.11 330.06 1.80 c p3
76.35 324.34 1.80 c p3
78.60 337.20 1.80 c p3
80.84 338.49 1.80 c p3
83.08 328.34 1.80 c p3
85.33 333.92 1.80 c p3
87.57 326.06 1.80 c p3
89.81 323.63 1.80 c p3
92.06 328.06 1.80 c p3
94.30 321.77 1.80 c p3
96.54 337.77 1.80 c p3
98.79 332.49 1.80 c p3
101.03 334.77 1.80 c p3
103.27 320.06 1.80 c p3
105.52 326.49 1.80 c p3
107.76 317.63 1.80 c p3
110.00 324.77 1.80 c p3
112.24 326.34 1.80 c p3
114.49 319.63 1.80 c p3
116.73 326.20 1.80 c p3
118.97 332.63 1.80 c p3
121.22 327.34 1.80 c p3
123.46 319.63 1.80 c p3
125.70 317.91 1.80 c p3
127.95 333.20 1.80 c p3
130.19 337.49 1.80 c p3
132.43 328.63 1.80 c p3
134.68 321.91 1.80 c p3
136.92 323.06 1.80 c p3
139.16 329.34 1.80 c p3
141.41 328.92 1.80 c p3
143.65 337.06 1.80 c p3
145.89 329.77 1.80 c p3
148.13 326.77 1.80 c p3
150.38 327.49 1.80 c p3
152.62 326.34 1.80 c p3
154.86 324.63 1.80 c p3
157.11 333.06 1.80 c p3
159.35 319.49 1.80 c p3
161.59 316.34 1.80 c p3
163.84 326.49 1.80 c p3
166.08 313.20 1.80 c p3
168.32 332.92 1.80 c p3
170.57 327.63 1.80 c p3
172.81 318.63 1.80 c p3
175.05 333.34 1.80 c p3
177.30 327.34 1.80 c p3
179.54 335.77 1.80 c p3
181.78 319.91 1.80 c p3
184.03 320.34 1.80 c p3
186.27 324.91 1.80 c p3
188.51 325.06 1.80 c p3
190.75 321.63 1.80 c p3
193.00 331.49 1.80 c p3
195.24 331.49 1.80 c p3
197.48 333.92 1.80 c p3
199.73 333.34 1.80 c p3
201.97 332.49 1.80 c p3
204.21 328.20 1.80 c p3
206.46 321.63 1.80 c p3
208.70 328.20 1.80 c p3
210.94 316.63 1.80 c p3
213.19 336.92 1.80 c p3
215.43 319.20 1.80 c p3
217.67 318.77 1.80 c p3
219.92 325.77 1.80 c p3
222.16 325.63 1.80 c p3
224.40 327.63 1.80 c p3
226.64 327.63 1.80 c p3
228.89 329.77 1.80 c p3
231.13 334.49 1.80 c p3
233.37 321.77 1.80 c p3
235.62 322.49 1.80 c p3
237.86 334.92 1.80 c p3
240.10 342.63 1.80 c p3
242.35 321.49 1.80 c p3
244.59 325.49 1.80 c p3
246.83 340.20 1.80 c p3
249.08 327.63 1.80 c p3
251.32 329.77 1.80 c p3
253.56 324.06 1.80 c p3
255.81 317.06 1.80 c p3
258.05 329.34 1.80 c p3
260.29 319.34 1.80 c p3
262.53 325.06 1.80 c p3
264.78 331.20 1.80 c p3
267.02 334.49 1.80 c p3
269.26 327.92 1.80 c p3
271.51 325.34 1.80 c p3
273.75 328.77 1.80 c p3
275.99 327.77 1.80 c p3
278.24 330.34 1.80 c p3
280.48 316.77 1.80 c p3
282.72 330.34 1.80 c p3
284.97 306.91 1.80 c p3
287.21 329.77 1.80 c p3
289.45 327.77 1.80 c p3
291.70 329.06 1.80 c p3
293.94 328.49 1.80 c p3
296.18 328.34 1.80 c p3
298.43 319.34 1.80 c p3
300.67 325.34 1.80 c p3
302.91 326.92 1.80 c p3
305.15 334.49 1.80 c p3
307.40 319.91 1.80 c p3
309.64 329.63 1.80 c p3
311.88 319.91 1.80 c p3
314.13 325.77 1.80 c p3
316.37 328.63 1.80 c p3
318.61 333.49 1.80 c p3
320.86 331.34 1.80 c p3
323.10 326.34 1.80 c p3
325.34 319.77 1.80 c p3
327.59 326.63 1.80 c p3
329.83 320.63 1.80 c p3
332.07 324.77 1.80 c p3
334.32 319.63 1.80 c p3
336.56 325.77 1.80 c p3
338.80 324.77 1.80 c p3
341.04 333.63 1.80 c p3
343.29 325.49 1.80 c p3
345.53 325.34 1.80 c p3
347.77 325.77 1.80 c p3
350.02 316.48 1.80 c p3
352.26 329.63 1.80 c p3
354.50 340.20 1.80 c p3
356.75 332.63 1.80 c p3
358.99 326.20 1.80 c p3
361.23 329.49 1.80 c p3
363.48 333.06 1.80 c p3
365.72 333.63 1.80 c p3
367.96 331.20 1.80 c p3
370.21 321.63 1.80 c p3
372.45 324.63 1.80 c p3
374.69 323.20 1.80 c p3
376.93 324.20 1.80 c p3
379.18 314.06 1.80 c p3
381.42 327.92 1.80 c p3
383.66 324.91 1.80 c p3
385.91 326.77 1.80 c p3
388.15 322.34 1.80 c p3
390.39 324.63 1.80 c p3
392.64 328.20 1.80 c p3
394.88 322.91 1.80 c p3
397.12 331.63 1.80 c p3
399.37 322.06 1.80 c p3
401.61 329.49 1.80 c p3
403.85 337.49 1.80 c p3
406.10 335.20 1.80 c p3
408.34 326.34 1.80 c p3
410.58 323.77 1.80 c p3
412.83 321.91 1.80 c p3
415.07 339.06 1.80 c p3
417.31 344.49 1.80 c p3
419.55 323.20 1.80 c p3
421.80 322.34 1.80 c p3
424.04 331.49 1.80 c p3
426.28 337.63 1.80 c p3
428.53 325.63 1.80 c p3
430.77 321.34 1.80 c p3
433.01 323.06 1.80 c p3
435.26 330.92 1.80 c p3
437.50 333.06 1.80 c p3
439.74 318.20 1.80 c p3
441.99 329.77 1.80 c p3
444.23 318.63 1.80 c p3
446.47 321.91 1.80 c p3
448.72 324.49 1.80 c p3
450.96 335.06 1.80 c p3
453.20 317.06 1.80 c p3
455.44 338.06 1.80 c p3
457.69 334.06 1.80 c p3
459.93 335.77 1.80 c p3
462.17 328.49 1.80 c p3
464.42 346.35 1.80 c p3
466.66 328.49 1.80 c p3
468.90 329.92 1.80 c p3
471.15 319.20 1.80 c p3
473.39 324.77 1.80 c p3
475.63 315.63 1.80 c p3
477.88 328.77 1.80 c p3
480.12 322.49 1.80 c p3
482.36 324.49 1.80 c p3
484.61 326.77 1.80 c p3
486.85 330.92 1.80 c p3
489.09 325.20 1.80 c p3
491.33 317.77 1.80 c p3
493.58 326.49 1.80 c p3
495.82 329.77 1.80 c p3
498.06 329.49 1.80 c p3
500.31 326.92 1.80 c p3
502.55 337.35 1.80 c p3
504.79 328.63 1.80 c p3
507.04 331.49 1.80 c p3
509.28 317.06 1.80 c p3
511.52 324.34 1.80 c p3
513.77 326.06 1.80 c p3
516.01 330.63 1.80 c p3
518.25 326.92 1.80 c p3
520.50 318.91 1.80 c p3
522.74 334.77 1.80 c p3
524.98 339.06 1.80 c p3
527.23 327.92 1.80 c p3
529.47 329.49 1.80 c p3
531.71 320.34 1.80 c p3
533.95 312.48 1.80 c p3
536.20 325.34 1.80 c p3
538.44 317.34 1.80 c p3
540.68 328.92 1.80 c p3
542.93 320.91 1.80 c p3
545.17 319.06 1.80 c p3
547.41 327.06 1.80 c p3
549.66 331.77 1.80 c p3
551.90 338.20 1.80 c p3
554.14 325.49 1.80 c p3
556.39 320.20 1.80 c p3
558.63 341.49 1.80 c p3
560.87 329.20 1.80 c p3
563.12 318.49 1.80 c p3
565.36 327.34 1.80 c p3
567.60 314.77 1.80 c p3
569.84 329.63 1.80 c p3
572.09 325.06 1.80 c p3
574.33 329.20 1.80 c p3
576.57 324.77 1.80 c p3
578.82 336.06 1.80 c p3
581.06 328.63 1.80 c p3
583.30 325.91 1.80 c p3
585.55 333.92 1.80 c p3
587.79 326.06 1.80 c p3
590.03 334.34 1.80 c p3
592.28 326.77 1.80 c p3
594.52 334.20 1.80 c p3
596.76 330.20 1.80 c p3
599.01 334.20 1.80 c p3
601.25 326.20 1.80 c p3
603.49 321.63 1.80 c p3
605.73 321.77 1.80 c p3
607.98 329.49 1.80 c p3
610.22 328.77 1.80 c p3
612.46 312.48 1.80 c p3
614.71 309.77 1.80 c p3
616.95 334.77 1.80 c p3
619.19 311.34 1.80 c p3
621.44 324.20 1.80 c p3
623.68 325.63 1.80 c p3
0.00 0.00 648.00 360.00 cl
0 0 0 srgb
0.75 setlinewidth
[] 0 setdash
1 setlinecap
1 setlinejoin
10.00 setmiterlimit
np
51.68 28.80 m
560.78 0 l
o
np
51.68 28.80 m
0 -7.20 l
o
np
163.84 28.80 m
0 -7.20 l
o
np
275.99 28.80 m
0 -7.20 l
o
np
388.15 28.80 m
0 -7.20 l
o
np
500.31 28.80 m
0 -7.20 l
o
np
612.46 28.80 m
0 -7.20 l
o
/Font1 findfont 12 s
51.68 2.88 (0) .5 0 t
163.84 2.88 (50) .5 0 t
275.99 2.88 (100) .5 0 t
388.15 2.88 (150) .5 0 t
500.31 2.88 (200) .5 0 t
612.46 2.88 (250) .5 0 t
np
28.80 41.01 m
0 285.76 l
o
np
28.80 41.01 m
-7.20 0 l
o
np
28.80 112.45 m
-7.20 0 l
o
np
28.80 183.89 m
-7.20 0 l
o
np
28.80 255.33 m
-7.20 0 l
o
np
28.80 326.77 m
-7.20 0 l
o
11.52 41.01 (0) .5 90 t
11.52 112.45 (500) .5 90 t
11.52 183.89 (1000) .5 90 t
11.52 255.33 (1500) .5 90 t
11.52 326.77 (2000) .5 90 t
np
28.80 28.80 m
617.76 0 l
0 329.76 l
-617.76 0 l
0 -329.76 l
o
0.00 0.00 648.00 360.00 cl
28.80 28.80 646.56 358.56 cl
0.8039 0 0 srgb
0.75 setlinewidth
[] 0 setdash
1 setlinecap
1 setlinejoin
10.00 setmiterlimit
np
28.80 326.77 m
617.76 0 l
o
ep
%%Trailer
%%Pages: 1
%%EOF
