gen,metric,value
lcg,ByteEnt,7.99969
lcg,Runtime,2644039
lw,ByteEnt,6.47244
lw,Runtime,15206550
rsaf,ByteEnt,7.99966
rsaf,Runtime,267604
rsa,ByteEnt,7.99963
rsa,Runtime,70103838
rsaThreeLogn,ByteEnt,7.99969
rsaThreeLogn,Runtime,9371673
rsaThreeFourteenOO,ByteEnt,7.99965
rsaThreeFourteenOO,Runtime,123808
rsaLargeLogn,ByteEnt,7.99965
rsaLargeLogn,Runtime,28129982
rsaLargeOne,ByteEnt,7.99968
rsaLargeOne,Runtime,309006650
bbs,ByteEnt,7.99962
bbs,Runtime,17708350
nw,ByteEnt,7.99961
nw,Runtime,2731227
lcg,ThruAbs,193.64313
lcg,ThruNorm,26.51392
lw,ThruAbs,33.66970
lw,ThruNorm,4.61011
rsaf,ThruAbs,1913.27484
rsaf,ThruNorm,261.96857
rsa,ThruAbs,7.30345
rsa,ThruNorm,1
bbs,ThruAbs,28.91291
bbs,ThruNorm,3.95880
nw,ThruAbs,187.46153
nw,ThruNorm,25.66753
bmAES,ThruAbs,14.01806
bmAES,ThruNorm,1.91938
bmPlain,ThruAbs,31.39486
bmPlain,ThruNorm,4.29863
