%!PS-Adobe-3.0 EPSF-3.0
%%DocumentNeededResources: font Helvetica
%%+ font Helvetica-Bold
%%+ font Helvetica-Oblique
%%+ font Helvetica-BoldOblique
%%+ font Symbol
%%Title: R Graphics Output
%%Creator: R Software
%%Pages: (atend)
%%BoundingBox: 0 0 720 432
%%EndComments
%%BeginProlog
/bp  { gs sRGB gs } def
% begin .ps.prolog
/gs  { gsave } bind def
/gr  { grestore } bind def
/ep  { showpage gr gr } bind def
/m   { moveto } bind def
/l  { rlineto } bind def
/np  { newpath } bind def
/cp  { closepath } bind def
/f   { fill } bind def
/o   { stroke } bind def
/c   { newpath 0 360 arc } bind def
/r   { 4 2 roll moveto 1 copy 3 -1 roll exch 0 exch rlineto 0 rlineto -1 mul 0 exch rlineto closepath } bind def
/p1  { stroke } bind def
/p2  { gsave bg fill grestore newpath } bind def
/p3  { gsave bg fill grestore stroke } bind def
/p6  { gsave bg eofill grestore newpath } bind def
/p7  { gsave bg eofill grestore stroke } bind def
/t   { 5 -2 roll moveto gsave rotate
       1 index stringwidth pop
       mul neg 0 rmoveto show grestore } bind def
/ta  { 4 -2 roll moveto gsave rotate show } bind def
/tb  { 2 -1 roll 0 rmoveto show } bind def
/cl  { grestore gsave newpath 3 index 3 index moveto 1 index
       4 -1 roll lineto  exch 1 index lineto lineto
       closepath clip newpath } bind def
/rgb { setrgbcolor } bind def
/s   { scalefont setfont } bind def
% end   .ps.prolog
/sRGB { [ /CIEBasedABC
          << /DecodeLMN
               [ { dup 0.03928 le
                        {12.92321 div}
                        {0.055 add 1.055 div 2.4 exp }
                     ifelse
                 } bind dup dup
               ]
             /MatrixLMN [0.412457 0.212673 0.019334
                         0.357576 0.715152 0.119192
                         0.180437 0.072175 0.950301]
             /WhitePoint [0.9505 1.0 1.0890]
           >>
         ] setcolorspace } bind def
/srgb { setcolor } bind def
%%IncludeResource: font Helvetica
/Helvetica findfont
dup length dict begin
  {1 index /FID ne {def} {pop pop} ifelse} forall
  /Encoding ISOLatin1Encoding def
  currentdict
  end
/Font1 exch definefont pop
%%IncludeResource: font Helvetica-Bold
/Helvetica-Bold findfont
dup length dict begin
  {1 index /FID ne {def} {pop pop} ifelse} forall
  /Encoding ISOLatin1Encoding def
  currentdict
  end
/Font2 exch definefont pop
%%IncludeResource: font Helvetica-Oblique
/Helvetica-Oblique findfont
dup length dict begin
  {1 index /FID ne {def} {pop pop} ifelse} forall
  /Encoding ISOLatin1Encoding def
  currentdict
  end
/Font3 exch definefont pop
%%IncludeResource: font Helvetica-BoldOblique
/Helvetica-BoldOblique findfont
dup length dict begin
  {1 index /FID ne {def} {pop pop} ifelse} forall
  /Encoding ISOLatin1Encoding def
  currentdict
  end
/Font4 exch definefont pop
%%IncludeResource: font Symbol
/Symbol findfont
dup length dict begin
  {1 index /FID ne {def} {pop pop} ifelse} forall
  currentdict
  end
/Font5 exch definefont pop
%%EndProlog
%%Page: 1 1
bp
59.04 116.64 689.76 372.96 cl
/bg { 0.1020 0.1020 0.1020 srgb } def
0.1020 0.1020 0.1020 srgb
0.75 setlinewidth
[] 0 setdash
1 setlinecap
1 setlinejoin
10.00 setmiterlimit
82.40 131.75 1.80 c p3
228.40 131.11 1.80 c p3
374.40 129.28 1.80 c p3
520.40 126.13 1.80 c p3
666.40 130.08 1.80 c p3
0.00 0.00 720.00 432.00 cl
0 0 0 srgb
0.75 setlinewidth
[] 0 setdash
1 setlinecap
1 setlinejoin
10.00 setmiterlimit
np
59.04 144.82 m
0 220.80 l
o
np
59.04 144.82 m
-7.20 0 l
o
np
59.04 173.71 m
-7.20 0 l
o
np
59.04 211.89 m
-7.20 0 l
o
np
59.04 240.78 m
-7.20 0 l
o
np
59.04 269.66 m
-7.20 0 l
o
np
59.04 307.85 m
-7.20 0 l
o
np
59.04 336.73 m
-7.20 0 l
o
np
59.04 365.62 m
-7.20 0 l
o
/Font1 findfont 12 s
41.76 144.82 (10) .5 90 t
41.76 173.71 (20) .5 90 t
41.76 211.89 (50) .5 90 t
41.76 240.78 (100) .5 90 t
41.76 307.85 (500) .5 90 t
41.76 365.62 (2000) .5 90 t
np
59.04 116.64 m
630.72 0 l
0 256.32 l
-630.72 0 l
0 -256.32 l
o
0.00 43.20 720.00 432.00 cl
/Font1 findfont 12 s
0 0 0 srgb
12.96 244.80 (Throughput [kB/s]) .5 90 t
59.04 116.64 689.76 372.96 cl
0.2196 0.2196 0.2196 srgb
0.75 setlinewidth
[] 0 setdash
1 setlinecap
1 setlinejoin
10.00 setmiterlimit
np
82.40 131.75 m
146.00 -0.64 l
146.00 -1.83 l
146.00 -3.15 l
146.00 3.95 l
o
/Font1 findfont 12 s
0.7020 0.7020 0.7020 srgb
82.40 128.72 (-) .5 0 t
228.40 128.08 (-) .5 0 t
374.40 126.25 (-) .5 0 t
520.40 123.10 (-) .5 0 t
666.40 127.05 (-) .5 0 t
82.40 128.72 (-) .5 0 t
228.40 128.08 (-) .5 0 t
374.40 126.25 (-) .5 0 t
520.40 123.10 (-) .5 0 t
666.40 127.05 (-) .5 0 t
/bg { 0.1020 0.1020 0.1020 srgb } def
0.1020 0.1020 0.1020 srgb
82.40 187.95 1.80 c p3
228.40 189.22 1.80 c p3
374.40 186.80 1.80 c p3
520.40 187.01 1.80 c p3
666.40 188.49 1.80 c p3
0.2745 0.5098 0.7059 srgb
np
82.40 187.95 m
146.00 1.27 l
146.00 -2.42 l
146.00 0.21 l
146.00 1.48 l
o
0.7020 0.7020 0.7020 srgb
82.40 184.92 (-) .5 0 t
228.40 186.19 (-) .5 0 t
374.40 183.77 (-) .5 0 t
520.40 183.98 (-) .5 0 t
666.40 185.46 (-) .5 0 t
82.40 184.92 (-) .5 0 t
228.40 186.19 (-) .5 0 t
374.40 183.77 (-) .5 0 t
520.40 183.98 (-) .5 0 t
666.40 185.46 (-) .5 0 t
0.1020 0.1020 0.1020 srgb
82.40 191.80 1.80 c p3
228.40 194.02 1.80 c p3
374.40 193.11 1.80 c p3
520.40 193.52 1.80 c p3
666.40 192.62 1.80 c p3
0.5451 0 0 srgb
np
82.40 191.80 m
146.00 2.22 l
146.00 -0.91 l
146.00 0.41 l
146.00 -0.90 l
o
0.7020 0.7020 0.7020 srgb
82.40 188.77 (-) .5 0 t
228.40 190.99 (-) .5 0 t
374.40 190.08 (-) .5 0 t
520.40 190.49 (-) .5 0 t
666.40 189.59 (-) .5 0 t
82.40 188.77 (-) .5 0 t
228.40 190.99 (-) .5 0 t
374.40 190.08 (-) .5 0 t
520.40 190.49 (-) .5 0 t
666.40 189.59 (-) .5 0 t
0.1020 0.1020 0.1020 srgb
82.40 267.71 1.80 c p3
228.40 267.20 1.80 c p3
374.40 268.12 1.80 c p3
520.40 263.58 1.80 c p3
666.40 267.55 1.80 c p3
0.9333 0.7059 0.1333 srgb
np
82.40 267.71 m
146.00 -0.51 l
146.00 0.92 l
146.00 -4.54 l
146.00 3.97 l
o
0.7020 0.7020 0.7020 srgb
82.40 264.68 (-) .5 0 t
228.40 264.17 (-) .5 0 t
374.40 265.09 (-) .5 0 t
520.40 260.55 (-) .5 0 t
666.40 264.52 (-) .5 0 t
82.40 264.68 (-) .5 0 t
228.40 264.17 (-) .5 0 t
374.40 265.09 (-) .5 0 t
520.40 260.55 (-) .5 0 t
666.40 264.52 (-) .5 0 t
0.1020 0.1020 0.1020 srgb
82.40 342.54 1.80 c p3
228.40 360.31 1.80 c p3
374.40 360.04 1.80 c p3
520.40 362.14 1.80 c p3
666.40 363.47 1.80 c p3
0.8039 0 0 srgb
np
82.40 342.54 m
146.00 17.77 l
146.00 -0.27 l
146.00 2.10 l
146.00 1.33 l
o
0.7020 0.7020 0.7020 srgb
82.40 339.51 (-) .5 0 t
228.40 357.28 (-) .5 0 t
374.40 357.01 (-) .5 0 t
520.40 359.11 (-) .5 0 t
666.40 360.44 (-) .5 0 t
82.40 339.51 (-) .5 0 t
228.40 357.28 (-) .5 0 t
374.40 357.01 (-) .5 0 t
520.40 359.11 (-) .5 0 t
666.40 360.44 (-) .5 0 t
0.1020 0.1020 0.1020 srgb
82.40 259.90 1.80 c p3
228.40 266.42 1.80 c p3
374.40 266.88 1.80 c p3
520.40 266.38 1.80 c p3
666.40 266.43 1.80 c p3
0 0 0.9333 srgb
np
82.40 259.90 m
146.00 6.52 l
146.00 0.46 l
146.00 -0.50 l
146.00 0.05 l
o
0.7020 0.7020 0.7020 srgb
82.40 256.87 (-) .5 0 t
228.40 263.39 (-) .5 0 t
374.40 263.85 (-) .5 0 t
520.40 263.35 (-) .5 0 t
666.40 263.40 (-) .5 0 t
82.40 256.87 (-) .5 0 t
228.40 263.39 (-) .5 0 t
374.40 263.85 (-) .5 0 t
520.40 263.35 (-) .5 0 t
666.40 263.40 (-) .5 0 t
0.00 0.00 720.00 432.00 cl
0 0 0 srgb
0.75 setlinewidth
[] 0 setdash
1 setlinecap
1 setlinejoin
10.00 setmiterlimit
np
82.40 116.64 m
584.00 0 l
o
np
82.40 116.64 m
0 -7.20 l
o
np
228.40 116.64 m
0 -7.20 l
o
np
374.40 116.64 m
0 -7.20 l
o
np
520.40 116.64 m
0 -7.20 l
o
np
666.40 116.64 m
0 -7.20 l
o
/Font1 findfont 12 s
82.40 90.72 (100 Byte) .5 0 t
228.40 90.72 (1 000 Byte) .5 0 t
374.40 90.72 (10 000 Byte) .5 0 t
520.40 90.72 (100 000 Byte) .5 0 t
666.40 90.72 (1 000 000 Byte) .5 0 t
59.04 73.44 689.76 27.36 cl
0 0 0 srgb
0.75 setlinewidth
[] 0 setdash
1 setlinecap
1 setlinejoin
10.00 setmiterlimit
82.40 37.01 546.55 35.60 r p1
0.2196 0.2196 0.2196 srgb
np
93.20 54.81 m
21.60 0 l
o
0.8039 0 0 srgb
np
183.39 54.81 m
21.60 0 l
o
0.2745 0.5098 0.7059 srgb
np
273.58 54.81 m
21.60 0 l
o
0.9333 0.7059 0.1333 srgb
np
363.78 54.81 m
21.60 0 l
o
0.5451 0 0 srgb
np
453.97 54.81 m
21.60 0 l
o
0 0 0.9333 srgb
np
544.16 54.81 m
21.60 0 l
o
/Font1 findfont 12 s
0 0 0 srgb
125.60 50.50 (RSA) 0 0 t
215.79 50.50 (RSA f) 0 ta
-0.360 (ast) tb gr
305.98 50.50 (BBS) 0 0 t
396.18 50.50 (LCG) 0 0 t
486.37 50.50 (L) 0 ta
-0.840 (W) tb gr
576.56 50.50 (NW) 0 0 t
ep
%%Trailer
%%Pages: 1
%%EOF
